Date,Total confirmed* cases,Total confirmed new cases,Total deaths,Total new deaths,,
5-Mar-20,14768,2098,267,53,,
4-Mar-20,12668,2103,214,48,,
3-Mar-20,10566,1792,160,38,,
2-Mar-20,8774,1598,128,24,,
1-Mar-20,7169,1160,104,18,,
29-Feb-20,6009,1318,86,19,,
28-Feb-20,4691,1027,67,10,,
27-Feb-20,3664,746,57,13,,
26-Feb-20,2918,459,44,10,,
25-Feb-20,2459,390,34,11,,
24-Feb-20,2069,300,23,6,,
