﻿Country,Source,Region,Year,Country,StartDate,EndDate,Received,Processed,TestedPositive,,,,,,,,,,,,
China,Western Pacific Region of WHO,Eastern Asia,2009,25,6/15/09,6/21/09,2957,2696,477,,,,,,,,,,,,
China,Western Pacific Region of WHO,Eastern Asia,2009,26,6/22/09,6/28/09,3236,2900,775,,,,,,,,,,,,
China,Western Pacific Region of WHO,Eastern Asia,2009,27,6/29/09,7/5/09,3126,2722,746,,,,,,,,,,,,
China,Western Pacific Region of WHO,Eastern Asia,2009,28,7/6/09,7/12/09,3393,2968,995,,,,,,,,,,,,
China,Western Pacific Region of WHO,Eastern Asia,2009,29,7/13/09,7/19/09,3270,2960,1496,,,,,,,,,,,,
China,Western Pacific Region of WHO,Eastern Asia,2009,30,7/20/09,7/26/09,3724,3355,2410,,,,,,,,,,,,
China,Western Pacific Region of WHO,Eastern Asia,2009,31,7/27/09,8/2/09,3939,3473,3194,,,,,,,,,,,,
China,Western Pacific Region of WHO,Eastern Asia,2009,32,8/3/09,8/9/09,4257,3391,968,,,,,,,,,,,,
China,Western Pacific Region of WHO,Eastern Asia,2009,33,8/10/09,8/16/09,3579,2530,3200,,,,,,,,,,,,
China,Western Pacific Region of WHO,Eastern Asia,2009,34,8/17/09,8/23/09,5060,3478,4174,,,,,,,,,,,,
China,Western Pacific Region of WHO,Eastern Asia,2009,35,8/24/09,8/30/09,7025,6492,5425,,,,,,,,,,,,
China,Western Pacific Region of WHO,Eastern Asia,2009,36,8/31/09,9/6/09,7649,6065,5441,,,,,,,,,,,,
China,Western Pacific Region of WHO,Eastern Asia,2009,37,9/7/09,9/13/09,11957,10945,7469,,,,,,,,,,,,
China,Western Pacific Region of WHO,Eastern Asia,2009,38,9/14/09,9/20/09,9985,8115,6313,,,,,,,,,,,,
China,Western Pacific Region of WHO,Eastern Asia,2009,39,9/21/09,9/27/09,8145,6680,6877,,,,,,,,,,,,
China,Western Pacific Region of WHO,Eastern Asia,2009,40,9/28/09,10/4/09,5939,5142,2939,,,,,,,,,,,,
China,Western Pacific Region of WHO,Eastern Asia,2009,41,10/5/09,10/11/09,4785,4086,1702,,,,,,,,,,,,
China,Western Pacific Region of WHO,Eastern Asia,2009,42,10/12/09,10/18/09,8108,6738,2587,,,,,,,,,,,,
China,Western Pacific Region of WHO,Eastern Asia,2009,43,10/19/09,10/25/09,8542,7112,2890,,,,,,,,,,,,
China,Western Pacific Region of WHO,Eastern Asia,2009,44,10/26/09,11/1/09,8986,7614,3654,,,,,,,,,,,,
China,Western Pacific Region of WHO,Eastern Asia,2009,45,11/2/09,11/8/09,10732,10158,5084,,,,,,,,,,,,
China,Western Pacific Region of WHO,Eastern Asia,2009,46,11/9/09,11/15/09,6831,6340,3242,,,,,,,,,,,,
China,Western Pacific Region of WHO,Eastern Asia,2009,47,11/16/09,11/22/09,10196,10066,5647,,,,,,,,,,,,
China,Western Pacific Region of WHO,Eastern Asia,2009,48,11/23/09,11/29/09,7643,7006,4179,,,,,,,,,,,,
China,Western Pacific Region of WHO,Eastern Asia,2009,49,11/30/09,12/6/09,7102,6338,3325,,,,,,,,,,,,
China,Western Pacific Region of WHO,Eastern Asia,2009,50,12/7/09,12/13/09,9250,9006,4058,,,,,,,,,,,,
China,Western Pacific Region of WHO,Eastern Asia,2009,51,12/14/09,12/20/09,8587,8412,3332,,,,,,,,,,,,
China,Western Pacific Region of WHO,Eastern Asia,2009,52,12/21/09,12/27/09,8209,8149,2888,,,,,,,,,,,,
China,Western Pacific Region of WHO,Eastern Asia,2009,53,12/28/09,1/3/10,7320,7250,2430,,,,,,,,,,,,
China,Western Pacific Region of WHO,Eastern Asia,2010,1,1/4/10,1/10/10,7412,7341,2179,,,,,,,,,,,,
China,Western Pacific Region of WHO,Eastern Asia,2010,2,1/11/10,1/17/10,7294,7155,2213,,,,,,,,,,,,
China,Western Pacific Region of WHO,Eastern Asia,2010,3,1/18/10,1/24/10,7427,7169,2228,,,,,,,,,,,,
China,Western Pacific Region of WHO,Eastern Asia,2010,4,1/25/10,1/31/10,6640,6436,2027,,,,,,,,,,,,
China,Western Pacific Region of WHO,Eastern Asia,2010,5,2/1/10,2/7/10,6403,6325,1813,,,,,,,,,,,,
China,Western Pacific Region of WHO,Eastern Asia,2010,6,2/8/10,2/14/10,4839,4747,1353,,,,,,,,,,,,
China,Western Pacific Region of WHO,Eastern Asia,2010,7,2/15/10,2/21/10,3383,3338,799,,,,,,,,,,,,
China,Western Pacific Region of WHO,Eastern Asia,2010,8,2/22/10,2/28/10,5539,5465,1218,,,,,,,,,,,,
China,Western Pacific Region of WHO,Eastern Asia,2010,9,3/1/10,3/7/10,5681,5630,1333,,,,,,,,,,,,
China,Western Pacific Region of WHO,Eastern Asia,2010,10,3/8/10,3/14/10,5893,5699,1614,,,,,,,,,,,,
China,Western Pacific Region of WHO,Eastern Asia,2010,11,3/15/10,3/21/10,6332,6216,1745,,,,,,,,,,,,
China,Western Pacific Region of WHO,Eastern Asia,2010,12,3/22/10,3/28/10,5859,5618,1548,,,,,,,,,,,,
China,Western Pacific Region of WHO,Eastern Asia,2010,13,3/29/10,4/4/10,5659,5490,1388,,,,,,,,,,,,
China,Western Pacific Region of WHO,Eastern Asia,2010,14,4/5/10,4/11/10,5007,4642,843,,,,,,,,,,,,
China,Western Pacific Region of WHO,Eastern Asia,2010,15,4/12/10,4/18/10,3802,3392,635,,,,,,,,,,,,
China,Western Pacific Region of WHO,Eastern Asia,2010,16,4/19/10,4/25/10,5401,4924,716,,,,,,,,,,,,
China,Western Pacific Region of WHO,Eastern Asia,2010,17,4/26/10,5/2/10,4637,4101,602,,,,,,,,,,,,
China,Western Pacific Region of WHO,Eastern Asia,2010,18,5/3/10,5/9/10,4587,4354,529,,,,,,,,,,,,
China,Western Pacific Region of WHO,Eastern Asia,2010,19,5/10/10,5/16/10,4712,4250,434,,,,,,,,,,,,
China,Western Pacific Region of WHO,Eastern Asia,2010,20,5/17/10,5/23/10,4477,3979,368,,,,,,,,,,,,
China,Western Pacific Region of WHO,Eastern Asia,2010,21,5/24/10,5/30/10,4407,3951,314,,,,,,,,,,,,
China,Western Pacific Region of WHO,Eastern Asia,2010,22,5/31/10,6/6/10,4146,3674,225,,,,,,,,,,,,
China,Western Pacific Region of WHO,Eastern Asia,2010,23,6/7/10,6/13/10,4124,3654,238,,,,,,,,,,,,
China,Western Pacific Region of WHO,Eastern Asia,2010,24,6/14/10,6/20/10,3054,2741,118,,,,,,,,,,,,
China,Western Pacific Region of WHO,Eastern Asia,2010,25,6/21/10,6/27/10,3948,3607,185,,,,,,,,,,,,
China,Western Pacific Region of WHO,Eastern Asia,2010,26,6/28/10,7/4/10,3773,3311,202,,,,,,,,,,,,
China,Western Pacific Region of WHO,Eastern Asia,2010,27,7/5/10,7/11/10,4033,3683,262,,,,,,,,,,,,
China,Western Pacific Region of WHO,Eastern Asia,2010,28,7/12/10,7/18/10,4204,3883,334,,,,,,,,,,,,
China,Western Pacific Region of WHO,Eastern Asia,2010,29,7/19/10,7/25/10,4351,4122,432,,,,,,,,,,,,
China,Western Pacific Region of WHO,Eastern Asia,2010,30,7/26/10,8/1/10,4218,3817,413,,,,,,,,,,,,
China,Western Pacific Region of WHO,Eastern Asia,2010,31,8/2/10,8/8/10,4506,4076,615,,,,,,,,,,,,
China,Western Pacific Region of WHO,Eastern Asia,2010,32,8/9/10,8/15/10,4222,3595,776,,,,,,,,,,,,
China,Western Pacific Region of WHO,Eastern Asia,2010,33,8/16/10,8/22/10,4257,3636,782,,,,,,,,,,,,
China,Western Pacific Region of WHO,Eastern Asia,2010,34,8/23/10,8/29/10,4205,3723,1018,,,,,,,,,,,,
China,Western Pacific Region of WHO,Eastern Asia,2010,35,8/30/10,9/5/10,4185,3700,1211,,,,,,,,,,,,
China,Western Pacific Region of WHO,Eastern Asia,2010,36,9/6/10,9/12/10,4326,3739,1441,,,,,,,,,,,,
China,Western Pacific Region of WHO,Eastern Asia,2010,37,9/13/10,9/19/10,4412,3697,1473,,,,,,,,,,,,
China,Western Pacific Region of WHO,Eastern Asia,2010,38,9/20/10,9/26/10,3652,3202,1197,,,,,,,,,,,,
China,Western Pacific Region of WHO,Eastern Asia,2010,39,9/27/10,10/3/10,3322,2912,1045,,,,,,,,,,,,
China,Western Pacific Region of WHO,Eastern Asia,2010,40,10/4/10,10/10/10,2956,2655,890,,,,,,,,,,,,
China,Western Pacific Region of WHO,Eastern Asia,2010,41,10/11/10,10/17/10,3767,2999,685,,,,,,,,,,,,
China,Western Pacific Region of WHO,Eastern Asia,2010,42,10/18/10,10/24/10,3826,2808,508,,,,,,,,,,,,
China,Western Pacific Region of WHO,Eastern Asia,2010,43,10/25/10,10/31/10,4040,3510,498,,,,,,,,,,,,
China,Western Pacific Region of WHO,Eastern Asia,2010,44,11/1/10,11/7/10,4276,3345,400,,,,,,,,,,,,
China,Western Pacific Region of WHO,Eastern Asia,2010,45,11/8/10,11/14/10,4349,3337,389,,,,,,,,,,,,
China,Western Pacific Region of WHO,Eastern Asia,2010,46,11/15/10,11/21/10,3761,2450,245,,,,,,,,,,,,
China,Western Pacific Region of WHO,Eastern Asia,2010,47,11/22/10,11/28/10,4433,3094,397,,,,,,,,,,,,
China,Western Pacific Region of WHO,Eastern Asia,2010,48,11/29/10,12/5/10,4447,2889,400,,,,,,,,,,,,
China,Western Pacific Region of WHO,Eastern Asia,2010,49,12/6/10,12/12/10,4357,2752,395,,,,,,,,,,,,
China,Western Pacific Region of WHO,Eastern Asia,2010,50,12/13/10,12/19/10,4368,2889,359,,,,,,,,,,,,
China,Western Pacific Region of WHO,Eastern Asia,2010,51,12/20/10,12/26/10,5106,4102,602,,,,,,,,,,,,
China,Western Pacific Region of WHO,Eastern Asia,2010,52,12/27/10,1/2/11,4367,2970,532,,,,,,,,,,,,
China,Western Pacific Region of WHO,Eastern Asia,2011,1,1/3/11,1/9/11,4567,3100,808,,,,,,,,,,,,
China,Western Pacific Region of WHO,Eastern Asia,2011,2,1/10/11,1/16/11,5032,3392,1179,,,,,,,,,,,,
China,Western Pacific Region of WHO,Eastern Asia,2011,3,1/17/11,1/23/11,5681,4753,1739,,,,,,,,,,,,
China,Western Pacific Region of WHO,Eastern Asia,2011,4,1/24/11,1/30/11,5420,4231,1934,,,,,,,,,,,,
China,Western Pacific Region of WHO,Eastern Asia,2011,5,1/31/11,2/6/11,2340,1781,1460,,,,,,,,,,,,
China,Western Pacific Region of WHO,Eastern Asia,2011,6,2/7/11,2/13/11,3659,2536,1547,,,,,,,,,,,,
China,Western Pacific Region of WHO,Eastern Asia,2011,7,2/14/11,2/20/11,4891,3472,1488,,,,,,,,,,,,
China,Western Pacific Region of WHO,Eastern Asia,2011,8,2/21/11,2/27/11,5303,3668,1089,,,,,,,,,,,,
China,Western Pacific Region of WHO,Eastern Asia,2011,9,2/28/11,3/6/11,5522,4492,948,,,,,,,,,,,,
China,Western Pacific Region of WHO,Eastern Asia,2011,10,3/7/11,3/13/11,5304,4017,713,,,,,,,,,,,,
China,Western Pacific Region of WHO,Eastern Asia,2011,11,3/14/11,3/20/11,5281,3953,548,,,,,,,,,,,,
China,Western Pacific Region of WHO,Eastern Asia,2011,12,3/21/11,3/27/11,4954,3770,424,,,,,,,,,,,,
China,Western Pacific Region of WHO,Eastern Asia,2011,13,3/28/11,4/3/11,4474,3198,377,,,,,,,,,,,,
China,Western Pacific Region of WHO,Eastern Asia,2011,14,4/4/11,4/10/11,3387,2438,301,,,,,,,,,,,,
China,Western Pacific Region of WHO,Eastern Asia,2011,15,4/11/11,4/17/11,3506,2523,277,,,,,,,,,,,,
China,Western Pacific Region of WHO,Eastern Asia,2011,16,4/18/11,4/24/11,3521,2903,276,,,,,,,,,,,,
China,Western Pacific Region of WHO,Eastern Asia,2011,17,4/25/11,5/1/11,3198,2233,177,,,,,,,,,,,,
China,Western Pacific Region of WHO,Eastern Asia,2011,18,5/2/11,5/8/11,2837,2040,141,,,,,,,,,,,,
China,Western Pacific Region of WHO,Eastern Asia,2011,19,5/9/11,5/15/11,2990,2168,156,,,,,,,,,,,,
China,Western Pacific Region of WHO,Eastern Asia,2011,20,5/16/11,5/22/11,3200,2656,145,,,,,,,,,,,,
China,Western Pacific Region of WHO,Eastern Asia,2011,21,5/23/11,5/29/11,2969,2371,114,,,,,,,,,,,,
China,Western Pacific Region of WHO,Eastern Asia,2011,22,5/30/11,6/5/11,2571,1855,81,,,,,,,,,,,,
China,Western Pacific Region of WHO,Eastern Asia,2011,23,6/6/11,6/12/11,2530,1763,60,,,,,,,,,,,,
China,Western Pacific Region of WHO,Eastern Asia,2011,24,6/13/11,6/19/11,2560,1911,64,,,,,,,,,,,,
China,Western Pacific Region of WHO,Eastern Asia,2011,25,6/20/11,6/26/11,2570,1804,39,,,,,,,,,,,,
China,Western Pacific Region of WHO,Eastern Asia,2011,26,6/27/11,7/3/11,2365,1629,53,,,,,,,,,,,,
China,Western Pacific Region of WHO,Eastern Asia,2011,27,7/4/11,7/10/11,2471,1712,57,,,,,,,,,,,,
China,Western Pacific Region of WHO,Eastern Asia,2011,28,7/11/11,7/17/11,2645,2231,71,,,,,,,,,,,,
China,Western Pacific Region of WHO,Eastern Asia,2011,29,7/18/11,7/24/11,2471,1751,64,,,,,,,,,,,,
China,Western Pacific Region of WHO,Eastern Asia,2011,30,7/25/11,7/31/11,2642,2149,106,,,,,,,,,,,,
China,Western Pacific Region of WHO,Eastern Asia,2011,31,8/1/11,8/7/11,2666,2411,119,,,,,,,,,,,,
China,Western Pacific Region of WHO,Eastern Asia,2011,32,8/8/11,8/14/11,2767,2480,121,,,,,,,,,,,,
China,Western Pacific Region of WHO,Eastern Asia,2011,33,8/15/11,8/21/11,2456,2032,103,,,,,,,,,,,,
China,Western Pacific Region of WHO,Eastern Asia,2011,34,8/22/11,8/28/11,2349,1696,83,,,,,,,,,,,,
China,Western Pacific Region of WHO,Eastern Asia,2011,35,8/29/11,9/4/11,2468,1840,108,,,,,,,,,,,,
China,Western Pacific Region of WHO,Eastern Asia,2011,36,9/5/11,9/11/11,2450,1677,147,,,,,,,,,,,,
China,Western Pacific Region of WHO,Eastern Asia,2011,37,9/12/11,9/18/11,2730,2309,109,,,,,,,,,,,,
China,Western Pacific Region of WHO,Eastern Asia,2011,38,9/19/11,9/25/11,2585,1964,129,,,,,,,,,,,,
China,Western Pacific Region of WHO,Eastern Asia,2011,39,9/26/11,10/2/11,2662,2212,152,,,,,,,,,,,,
China,Western Pacific Region of WHO,Eastern Asia,2011,40,10/3/11,10/9/11,2322,1869,142,,,,,,,,,,,,
China,Western Pacific Region of WHO,Eastern Asia,2011,41,10/10/11,10/16/11,3503,2446,146,,,,,,,,,,,,
China,Western Pacific Region of WHO,Eastern Asia,2011,42,10/17/11,10/23/11,3955,2777,117,,,,,,,,,,,,
China,Western Pacific Region of WHO,Eastern Asia,2011,43,10/24/11,10/30/11,4243,3328,161,,,,,,,,,,,,
China,Western Pacific Region of WHO,Eastern Asia,2011,44,10/31/11,11/6/11,4098,2836,154,,,,,,,,,,,,
China,Western Pacific Region of WHO,Eastern Asia,2011,45,11/7/11,11/13/11,4082,2725,240,,,,,,,,,,,,
China,Western Pacific Region of WHO,Eastern Asia,2011,46,11/14/11,11/20/11,4764,3953,222,,,,,,,,,,,,
China,Western Pacific Region of WHO,Eastern Asia,2011,47,11/21/11,11/27/11,4575,3192,211,,,,,,,,,,,,
China,Western Pacific Region of WHO,Eastern Asia,2011,48,11/28/11,12/4/11,4579,2946,221,,,,,,,,,,,,
China,Western Pacific Region of WHO,Eastern Asia,2011,49,12/5/11,12/11/11,4693,3346,304,,,,,,,,,,,,
China,Western Pacific Region of WHO,Eastern Asia,2011,50,12/12/11,12/18/11,5385,4862,510,,,,,,,,,,,,
China,Western Pacific Region of WHO,Eastern Asia,2011,51,12/19/11,12/25/11,5538,4624,722,,,,,,,,,,,,
China,Western Pacific Region of WHO,Eastern Asia,2011,52,12/26/11,1/1/12,5273,3857,858,,,,,,,,,,,,
China,Western Pacific Region of WHO,Eastern Asia,2012,1,1/2/12,1/8/12,6371,5236,1175,,,,,,,,,,,,
China,Western Pacific Region of WHO,Eastern Asia,2012,2,1/9/12,1/15/12,6978,5897,1605,,,,,,,,,,,,
China,Western Pacific Region of WHO,Eastern Asia,2012,3,1/16/12,1/22/12,6104,4896,1449,,,,,,,,,,,,
China,Western Pacific Region of WHO,Eastern Asia,2012,4,1/23/12,1/29/12,3801,2685,877,,,,,,,,,,,,
China,Western Pacific Region of WHO,Eastern Asia,2012,5,1/30/12,2/5/12,6584,5166,1719,,,,,,,,,,,,
China,Western Pacific Region of WHO,Eastern Asia,2012,6,2/6/12,2/12/12,7110,5609,1984,,,,,,,,,,,,
China,Western Pacific Region of WHO,Eastern Asia,2012,7,2/13/12,2/19/12,8101,6461,2717,,,,,,,,,,,,
China,Western Pacific Region of WHO,Eastern Asia,2012,8,2/20/12,2/26/12,8752,7050,3151,,,,,,,,,,,,
China,Western Pacific Region of WHO,Eastern Asia,2012,9,2/27/12,3/4/12,8047,5534,2806,,,,,,,,,,,,
China,Western Pacific Region of WHO,Eastern Asia,2012,10,3/5/12,3/11/12,8614,6597,2741,,,,,,,,,,,,
China,Western Pacific Region of WHO,Eastern Asia,2012,11,3/12/12,3/18/12,8379,6315,2397,,,,,,,,,,,,
China,Western Pacific Region of WHO,Eastern Asia,2012,12,3/19/12,3/25/12,7850,5691,1926,,,,,,,,,,,,
China,Western Pacific Region of WHO,Eastern Asia,2012,13,3/26/12,4/1/12,7903,5614,1672,,,,,,,,,,,,
China,Western Pacific Region of WHO,Eastern Asia,2012,14,4/2/12,4/8/12,4861,3259,853,,,,,,,,,,,,
China,Western Pacific Region of WHO,Eastern Asia,2012,15,4/9/12,4/15/12,5980,3746,788,,,,,,,,,,,,
China,Western Pacific Region of WHO,Eastern Asia,2012,16,4/16/12,4/22/12,5285,3378,674,,,,,,,,,,,,
China,Western Pacific Region of WHO,Eastern Asia,2012,17,4/23/12,4/29/12,4831,2744,576,,,,,,,,,,,,
China,Western Pacific Region of WHO,Eastern Asia,2012,18,4/30/12,5/6/12,4693,2026,541,,,,,,,,,,,,
China,Western Pacific Region of WHO,Eastern Asia,2012,19,5/7/12,5/13/12,5343,2768,735,,,,,,,,,,,,
China,Western Pacific Region of WHO,Eastern Asia,2012,20,5/14/12,5/20/12,5280,2190,887,,,,,,,,,,,,
China,Western Pacific Region of WHO,Eastern Asia,2012,21,5/21/12,5/27/12,5437,1138,1042,,,,,,,,,,,,
China,Western Pacific Region of WHO,Eastern Asia,2012,22,5/28/12,6/3/12,5062,2049,851,,,,,,,,,,,,
China,Western Pacific Region of WHO,Eastern Asia,2012,23,6/4/12,6/10/12,5344,2137,723,,,,,,,,,,,,
China,Western Pacific Region of WHO,Eastern Asia,2012,24,6/11/12,6/17/12,4990,2028,570,,,,,,,,,,,,
China,Western Pacific Region of WHO,Eastern Asia,2012,25,6/18/12,6/24/12,4475,1969,487,,,,,,,,,,,,
China,Western Pacific Region of WHO,Eastern Asia,2012,26,6/25/12,7/1/12,4899,2579,556,,,,,,,,,,,,
China,Western Pacific Region of WHO,Eastern Asia,2012,27,7/2/12,7/8/12,4648,2663,597,,,,,,,,,,,,
China,Western Pacific Region of WHO,Eastern Asia,2012,28,7/9/12,7/15/12,4490,2656,629,,,,,,,,,,,,
China,Western Pacific Region of WHO,Eastern Asia,2012,29,7/16/12,7/22/12,4504,2688,645,,,,,,,,,,,,
China,Western Pacific Region of WHO,Eastern Asia,2012,30,7/23/12,7/29/12,4372,2672,741,,,,,,,,,,,,
China,Western Pacific Region of WHO,Eastern Asia,2012,31,7/30/12,8/5/12,4380,2650,659,,,,,,,,,,,,
China,Western Pacific Region of WHO,Eastern Asia,2012,32,8/6/12,8/12/12,4377,2701,577,,,,,,,,,,,,
China,Western Pacific Region of WHO,Eastern Asia,2012,33,8/13/12,8/19/12,4162,2418,428,,,,,,,,,,,,
China,Western Pacific Region of WHO,Eastern Asia,2012,34,8/20/12,8/26/12,4146,2153,376,,,,,,,,,,,,
China,Western Pacific Region of WHO,Eastern Asia,2012,35,8/27/12,9/2/12,4097,2391,354,,,,,,,,,,,,
China,Western Pacific Region of WHO,Eastern Asia,2012,36,9/3/12,9/9/12,3877,1919,261,,,,,,,,,,,,
China,Western Pacific Region of WHO,Eastern Asia,2012,37,9/10/12,9/16/12,4056,2258,221,,,,,,,,,,,,
China,Western Pacific Region of WHO,Eastern Asia,2012,38,9/17/12,9/23/12,4351,2692,179,,,,,,,,,,,,
China,Western Pacific Region of WHO,Eastern Asia,2012,39,9/24/12,9/30/12,3964,2160,113,,,,,,,,,,,,
China,Western Pacific Region of WHO,Eastern Asia,2012,40,10/1/12,10/7/12,3431,1631,50,,,,,,,,,,,,
China,Western Pacific Region of WHO,Eastern Asia,2012,41,10/8/12,10/14/12,5431,3185,56,,,,,,,,,,,,
China,Western Pacific Region of WHO,Eastern Asia,2012,42,10/15/12,10/21/12,5769,3369,71,,,,,,,,,,,,
China,Western Pacific Region of WHO,Eastern Asia,2012,43,10/22/12,10/28/12,5731,3539,73,,,,,,,,,,,,
China,Western Pacific Region of WHO,Eastern Asia,2012,44,10/29/12,11/4/12,5619,3542,94,,,,,,,,,,,,
China,Western Pacific Region of WHO,Eastern Asia,2012,45,11/5/12,11/11/12,5923,3481,93,,,,,,,,,,,,
China,Western Pacific Region of WHO,Eastern Asia,2012,46,11/12/12,11/18/12,6335,4423,164,,,,,,,,,,,,
China,Western Pacific Region of WHO,Eastern Asia,2012,47,11/19/12,11/25/12,6324,3707,207,,,,,,,,,,,,
China,Western Pacific Region of WHO,Eastern Asia,2012,48,11/26/12,12/2/12,6150,3904,252,,,,,,,,,,,,
China,Western Pacific Region of WHO,Eastern Asia,2012,49,12/3/12,12/9/12,6583,4587,376,,,,,,,,,,,,
China,Western Pacific Region of WHO,Eastern Asia,2012,50,12/10/12,12/16/12,6602,3988,478,,,,,,,,,,,,
China,Western Pacific Region of WHO,Eastern Asia,2012,51,12/17/12,12/23/12,6974,5125,610,,,,,,,,,,,,
China,Western Pacific Region of WHO,Eastern Asia,2012,52,12/24/12,12/30/12,6834,4641,565,,,,,,,,,,,,
China,Western Pacific Region of WHO,Eastern Asia,2013,1,12/31/12,1/6/13,1217,,360,,,,,,,,,,,,
China,Western Pacific Region of WHO,Eastern Asia,2013,2,1/7/13,1/13/13,7803,5380,771,,,,,,,,,,,,
China,Western Pacific Region of WHO,Eastern Asia,2013,3,1/14/13,1/20/13,8392,4875,654,,,,,,,,,,,,
China,Western Pacific Region of WHO,Eastern Asia,2013,4,1/21/13,1/27/13,8308,5941,1270,,,,,,,,,,,,
China,Western Pacific Region of WHO,Eastern Asia,2013,5,1/28/13,2/3/13,7739,4797,922,,,,,,,,,,,,
China,Western Pacific Region of WHO,Eastern Asia,2013,6,2/4/13,2/10/13,5920,2679,481,,,,,,,,,,,,
China,Western Pacific Region of WHO,Eastern Asia,2013,7,2/11/13,2/17/13,5293,2968,503,,,,,,,,,,,,
China,Western Pacific Region of WHO,Eastern Asia,2013,8,2/18/13,2/24/13,7106,3945,606,,,,,,,,,,,,
China,Western Pacific Region of WHO,Eastern Asia,2013,9,2/25/13,3/3/13,7760,5858,848,,,,,,,,,,,,
China,Western Pacific Region of WHO,Eastern Asia,2013,10,3/4/13,3/10/13,7979,5766,877,,,,,,,,,,,,
China,Western Pacific Region of WHO,Eastern Asia,2013,11,3/11/13,3/17/13,7909,5218,752,,,,,,,,,,,,
China,Western Pacific Region of WHO,Eastern Asia,2013,12,3/18/13,3/24/13,7578,5784,721,,,,,,,,,,,,
China,Western Pacific Region of WHO,Eastern Asia,2013,13,3/25/13,3/31/13,7105,5368,565,,,,,,,,,,,,
China,Western Pacific Region of WHO,Eastern Asia,2013,14,4/1/13,4/7/13,7396,5563,586,,,,,,,,,,,,
China,Western Pacific Region of WHO,Eastern Asia,2013,15,4/8/13,4/14/13,9235,6866,682,,,,,,,,,,,,
China,Western Pacific Region of WHO,Eastern Asia,2013,16,4/15/13,4/21/13,9362,6653,609,,,,,,,,,,,,
China,Western Pacific Region of WHO,Eastern Asia,2013,17,4/22/13,4/28/13,8602,6354,531,,,,,,,,,,,,
China,Western Pacific Region of WHO,Eastern Asia,2013,18,4/29/13,5/5/13,7256,5330,421,,,,,,,,,,,,
China,Western Pacific Region of WHO,Eastern Asia,2013,19,5/6/13,5/12/13,7777,5848,341,,,,,,,,,,,,
China,Western Pacific Region of WHO,Eastern Asia,2013,20,5/13/13,5/19/13,7285,5260,248,,,,,,,,,,,,
China,Western Pacific Region of WHO,Eastern Asia,2013,21,5/20/13,5/26/13,7607,5751,277,,,,,,,,,,,,
China,Western Pacific Region of WHO,Eastern Asia,2013,22,5/27/13,6/2/13,7228,5170,185,,,,,,,,,,,,
China,Western Pacific Region of WHO,Eastern Asia,2013,23,6/3/13,6/9/13,7013,4761,191,,,,,,,,,,,,
China,Western Pacific Region of WHO,Eastern Asia,2013,24,6/10/13,6/16/13,6751,4963,176,,,,,,,,,,,,
China,Western Pacific Region of WHO,Eastern Asia,2013,25,6/17/13,6/23/13,7435,5537,193,,,,,,,,,,,,
China,Western Pacific Region of WHO,Eastern Asia,2013,26,6/24/13,6/30/13,6956,4835,212,,,,,,,,,,,,
China,Western Pacific Region of WHO,Eastern Asia,2013,27,7/1/13,7/7/13,6871,5253,222,,,,,,,,,,,,
China,Western Pacific Region of WHO,Eastern Asia,2013,28,7/8/13,7/14/13,6726,4875,196,,,,,,,,,,,,
China,Western Pacific Region of WHO,Eastern Asia,2013,29,7/15/13,7/21/13,6972,4986,213,,,,,,,,,,,,
China,Western Pacific Region of WHO,Eastern Asia,2013,30,7/22/13,7/28/13,7193,5270,259,,,,,,,,,,,,
China,Western Pacific Region of WHO,Eastern Asia,2013,31,7/29/13,8/4/13,6767,4548,292,,,,,,,,,,,,
China,Western Pacific Region of WHO,Eastern Asia,2013,32,8/5/13,8/11/13,7391,5321,300,,,,,,,,,,,,
China,Western Pacific Region of WHO,Eastern Asia,2013,33,8/12/13,8/18/13,7463,5544,376,,,,,,,,,,,,
China,Western Pacific Region of WHO,Eastern Asia,2013,34,8/19/13,8/25/13,7373,5711,277,,,,,,,,,,,,
China,Western Pacific Region of WHO,Eastern Asia,2013,35,8/26/13,9/1/13,7047,5219,313,,,,,,,,,,,,
China,Western Pacific Region of WHO,Eastern Asia,2013,36,9/2/13,9/8/13,7041,4831,387,,,,,,,,,,,,
China,Western Pacific Region of WHO,Eastern Asia,2013,37,9/9/13,9/15/13,7685,5701,566,,,,,,,,,,,,
China,Western Pacific Region of WHO,Eastern Asia,2013,38,9/16/13,9/22/13,7103,5111,532,,,,,,,,,,,,
China,Western Pacific Region of WHO,Eastern Asia,2013,39,9/23/13,9/29/13,7987,5936,478,,,,,,,,,,,,
China,Western Pacific Region of WHO,Eastern Asia,2013,40,9/30/13,10/6/13,6855,4931,364,,,,,,,,,,,,
China,Western Pacific Region of WHO,Eastern Asia,2013,41,10/7/13,10/13/13,9611,7858,419,,,,,,,,,,,,
China,Western Pacific Region of WHO,Eastern Asia,2013,42,10/14/13,10/20/13,9625,7874,360,,,,,,,,,,,,
China,Western Pacific Region of WHO,Eastern Asia,2013,43,10/21/13,10/27/13,9855,7321,342,,,,,,,,,,,,
China,Western Pacific Region of WHO,Eastern Asia,2013,44,10/28/13,11/3/13,10335,8313,452,,,,,,,,,,,,
China,Western Pacific Region of WHO,Eastern Asia,2013,45,11/4/13,11/10/13,10268,7365,460,,,,,,,,,,,,
China,Western Pacific Region of WHO,Eastern Asia,2013,46,11/11/13,11/17/13,10718,8711,665,,,,,,,,,,,,
China,Western Pacific Region of WHO,Eastern Asia,2013,47,11/18/13,11/24/13,10899,8107,731,,,,,,,,,,,,
China,Western Pacific Region of WHO,Eastern Asia,2013,48,11/25/13,12/1/13,11744,9906,1220,,,,,,,,,,,,
China,Western Pacific Region of WHO,Eastern Asia,2013,49,12/2/13,12/8/13,12378,10069,1613,,,,,,,,,,,,
China,Western Pacific Region of WHO,Eastern Asia,2013,50,12/9/13,12/15/13,12723,9987,2029,,,,,,,,,,,,
China,Western Pacific Region of WHO,Eastern Asia,2013,51,12/16/13,12/22/13,12805,9571,2398,,,,,,,,,,,,
China,Western Pacific Region of WHO,Eastern Asia,2013,52,12/23/13,12/29/13,13752,11193,3558,,,,,,,,,,,,
China,Western Pacific Region of WHO,Eastern Asia,2014,1,12/30/13,1/5/14,13519,10751,4031,,,,,,,,,,,,
China,Western Pacific Region of WHO,Eastern Asia,2014,2,1/6/14,1/12/14,14397,10199,4262,,,,,,,,,,,,
China,Western Pacific Region of WHO,Eastern Asia,2014,3,1/13/14,1/19/14,14305,10756,4594,,,,,,,,,,,,
China,Western Pacific Region of WHO,Eastern Asia,2014,4,1/20/14,1/26/14,14365,9621,4090,,,,,,,,,,,,
China,Western Pacific Region of WHO,Eastern Asia,2014,5,1/27/14,2/2/14,11292,6575,2814,,,,,,,,,,,,
China,Western Pacific Region of WHO,Eastern Asia,2014,6,2/3/14,2/9/14,12248,8275,3115,,,,,,,,,,,,
China,Western Pacific Region of WHO,Eastern Asia,2014,7,2/10/14,2/16/14,12919,9884,2980,,,,,,,,,,,,
China,Western Pacific Region of WHO,Eastern Asia,2014,8,2/17/14,2/23/14,13371,9713,2948,,,,,,,,,,,,
China,Western Pacific Region of WHO,Eastern Asia,2014,9,2/24/14,3/2/14,13666,10304,3012,,,,,,,,,,,,
China,Western Pacific Region of WHO,Eastern Asia,2014,10,3/3/14,3/9/14,12813,9645,2421,,,,,,,,,,,,
China,Western Pacific Region of WHO,Eastern Asia,2014,11,3/10/14,3/16/14,12547,8715,2000,,,,,,,,,,,,
China,Western Pacific Region of WHO,Eastern Asia,2014,12,3/17/14,3/23/14,12908,9853,1967,,,,,,,,,,,,
China,Western Pacific Region of WHO,Eastern Asia,2014,13,3/24/14,3/30/14,12431,8956,1490,,,,,,,,,,,,
China,Western Pacific Region of WHO,Eastern Asia,2014,14,3/31/14,4/6/14,9698,6403,933,,,,,,,,,,,,
China,Western Pacific Region of WHO,Eastern Asia,2014,15,4/7/14,4/13/14,9400,5909,740,,,,,,,,,,,,
China,Western Pacific Region of WHO,Eastern Asia,2014,16,4/14/14,4/20/14,9268,6491,570,,,,,,,,,,,,
China,Western Pacific Region of WHO,Eastern Asia,2014,17,4/21/14,4/27/14,8896,5941,479,,,,,,,,,,,,
China,Western Pacific Region of WHO,Eastern Asia,2014,18,4/28/14,5/4/14,8412,6026,436,,,,,,,,,,,,
China,Western Pacific Region of WHO,Eastern Asia,2014,19,5/5/14,5/11/14,8801,6514,400,,,,,,,,,,,,
China,Western Pacific Region of WHO,Eastern Asia,2014,20,5/12/14,5/18/14,8668,6269,391,,,,,,,,,,,,
China,Western Pacific Region of WHO,Eastern Asia,2014,21,5/19/14,5/25/14,8474,5549,351,,,,,,,,,,,,
China,Western Pacific Region of WHO,Eastern Asia,2014,22,5/26/14,6/1/14,8355,5273,421,,,,,,,,,,,,
China,Western Pacific Region of WHO,Eastern Asia,2014,23,6/2/14,6/8/14,8818,6523,624,,,,,,,,,,,,
China,Western Pacific Region of WHO,Eastern Asia,2014,24,6/9/14,6/15/14,9031,6549,852,,,,,,,,,,,,
China,Western Pacific Region of WHO,Eastern Asia,2014,25,6/16/14,6/22/14,8768,6104,759,,,,,,,,,,,,
China,Western Pacific Region of WHO,Eastern Asia,2014,26,6/23/14,6/29/14,8108,5313,833,,,,,,,,,,,,
China,Western Pacific Region of WHO,Eastern Asia,2014,27,6/30/14,7/6/14,8284,5373,906,,,,,,,,,,,,
China,Western Pacific Region of WHO,Eastern Asia,2014,28,7/7/14,7/13/14,9017,6937,1228,,,,,,,,,,,,
China,Western Pacific Region of WHO,Eastern Asia,2014,29,7/14/14,7/20/14,8691,6598,1325,,,,,,,,,,,,
China,Western Pacific Region of WHO,Eastern Asia,2014,30,7/21/14,7/27/14,8371,6369,1346,,,,,,,,,,,,
China,Western Pacific Region of WHO,Eastern Asia,2014,31,7/28/14,8/3/14,8112,5912,1286,,,,,,,,,,,,
China,Western Pacific Region of WHO,Eastern Asia,2014,32,8/4/14,8/10/14,8163,5450,1050,,,,,,,,,,,,
China,Western Pacific Region of WHO,Eastern Asia,2014,33,8/11/14,8/17/14,7970,5502,1047,,,,,,,,,,,,
China,Western Pacific Region of WHO,Eastern Asia,2014,34,8/18/14,8/24/14,7955,5953,951,,,,,,,,,,,,
China,Western Pacific Region of WHO,Eastern Asia,2014,35,8/25/14,8/31/14,8060,6314,882,,,,,,,,,,,,
China,Western Pacific Region of WHO,Eastern Asia,2014,36,9/1/14,9/7/14,8624,6472,766,,,,,,,,,,,,
China,Western Pacific Region of WHO,Eastern Asia,2014,37,9/8/14,9/14/14,8558,6320,665,,,,,,,,,,,,
China,Western Pacific Region of WHO,Eastern Asia,2014,38,9/15/14,9/21/14,8560,5893,498,,,,,,,,,,,,
China,Western Pacific Region of WHO,Eastern Asia,2014,39,9/22/14,9/28/14,8709,5517,340,,,,,,,,,,,,
China,Western Pacific Region of WHO,Eastern Asia,2014,40,9/29/14,10/5/14,8862,6777,311,,,,,,,,,,,,
China,Western Pacific Region of WHO,Eastern Asia,2014,41,10/6/14,10/12/14,10941,8728,297,,,,,,,,,,,,
China,Western Pacific Region of WHO,Eastern Asia,2014,42,10/13/14,10/19/14,11641,8898,252,,,,,,,,,,,,
China,Western Pacific Region of WHO,Eastern Asia,2014,43,10/20/14,10/26/14,11561,8004,274,,,,,,,,,,,,
China,Western Pacific Region of WHO,Eastern Asia,2014,44,10/27/14,11/2/14,11926,9703,327,,,,,,,,,,,,
China,Western Pacific Region of WHO,Eastern Asia,2014,45,11/3/14,11/9/14,12154,9948,405,,,,,,,,,,,,
China,Western Pacific Region of WHO,Eastern Asia,2014,46,11/10/14,11/16/14,12026,9941,546,,,,,,,,,,,,
China,Western Pacific Region of WHO,Eastern Asia,2014,47,11/17/14,11/23/14,12606,9780,854,,,,,,,,,,,,
China,Western Pacific Region of WHO,Eastern Asia,2014,48,11/24/14,11/30/14,12457,8622,906,,,,,,,,,,,,
China,Western Pacific Region of WHO,Eastern Asia,2014,49,12/1/14,12/7/14,12756,8952,1319,,,,,,,,,,,,
China,Western Pacific Region of WHO,Eastern Asia,2014,50,12/8/14,12/14/14,13026,9179,1736,,,,,,,,,,,,
China,Western Pacific Region of WHO,Eastern Asia,2014,51,12/15/14,12/21/14,13657,9318,2154,,,,,,,,,,,,
China,Western Pacific Region of WHO,Eastern Asia,2014,52,12/22/14,12/28/14,13647,9193,2481,,,,,,,,,,,,
China,Western Pacific Region of WHO,Eastern Asia,2015,1,12/29/14,1/4/15,13282,8370,2400,,,,,,,,,,,,
China,Western Pacific Region of WHO,Eastern Asia,2015,2,1/5/15,1/11/15,14001,10194,3314,,,,,,,,,,,,
China,Western Pacific Region of WHO,Eastern Asia,2015,3,1/12/15,1/18/15,14681,11088,3319,,,,,,,,,,,,
China,Western Pacific Region of WHO,Eastern Asia,2015,4,1/19/15,1/25/15,15738,11085,3671,,,,,,,,,,,,
China,Western Pacific Region of WHO,Eastern Asia,2015,5,1/26/15,2/1/15,16217,10487,3712,,,,,,,,,,,,
China,Western Pacific Region of WHO,Eastern Asia,2015,6,2/2/15,2/8/15,15712,9912,3174,,,,,,,,,,,,
China,Western Pacific Region of WHO,Eastern Asia,2015,7,2/9/15,2/15/15,15807,9588,2671,,,,,,,,,,,,
China,Western Pacific Region of WHO,Eastern Asia,2015,8,2/16/15,2/22/15,12114,7481,2062,,,,,,,,,,,,
China,Western Pacific Region of WHO,Eastern Asia,2015,9,2/23/15,3/1/15,14534,9067,2307,,,,,,,,,,,,
China,Western Pacific Region of WHO,Eastern Asia,2015,10,3/2/15,3/8/15,14971,10513,2068,,,,,,,,,,,,
China,Western Pacific Region of WHO,Eastern Asia,2015,11,3/9/15,3/15/15,14689,10182,2127,,,,,,,,,,,,
China,Western Pacific Region of WHO,Eastern Asia,2015,12,3/16/15,3/22/15,14847,9276,1930,,,,,,,,,,,,
China,Western Pacific Region of WHO,Eastern Asia,2015,13,3/23/15,3/29/15,14213,8803,1723,,,,,,,,,,,,
China,Western Pacific Region of WHO,Eastern Asia,2015,14,3/30/15,4/5/15,12127,8804,1342,,,,,,,,,,,,
China,Western Pacific Region of WHO,Eastern Asia,2015,15,4/6/15,4/12/15,11753,7012,1076,,,,,,,,,,,,
China,Western Pacific Region of WHO,Eastern Asia,2015,16,4/13/15,4/19/15,10808,6340,832,,,,,,,,,,,,
China,Western Pacific Region of WHO,Eastern Asia,2015,17,4/20/15,4/26/15,10996,7792,912,,,,,,,,,,,,
China,Western Pacific Region of WHO,Eastern Asia,2015,18,4/27/15,5/3/15,10446,7348,754,,,,,,,,,,,,
China,Western Pacific Region of WHO,Eastern Asia,2015,19,5/4/15,5/10/15,10994,7622,711,,,,,,,,,,,,
China,Western Pacific Region of WHO,Eastern Asia,2015,20,5/11/15,5/17/15,10453,7087,622,,,,,,,,,,,,
China,Western Pacific Region of WHO,Eastern Asia,2015,21,5/18/15,5/24/15,10201,6631,646,,,,,,,,,,,,
China,Western Pacific Region of WHO,Eastern Asia,2015,22,5/25/15,5/31/15,9712,5913,658,,,,,,,,,,,,
China,Western Pacific Region of WHO,Eastern Asia,2015,23,6/1/15,6/7/15,10730,7044,1068,,,,,,,,,,,,
China,Western Pacific Region of WHO,Eastern Asia,2015,24,6/8/15,6/14/15,11306,6989,1489,,,,,,,,,,,,
China,Western Pacific Region of WHO,Eastern Asia,2015,25,6/15/15,6/21/15,10510,6352,1864,,,,,,,,,,,,
China,Western Pacific Region of WHO,Eastern Asia,2015,26,6/22/15,6/28/15,10918,5754,1977,,,,,,,,,,,,
China,Western Pacific Region of WHO,Eastern Asia,2015,27,6/29/15,7/5/15,10787,10361,2317,,,,,,,,,,,,
China,Western Pacific Region of WHO,Eastern Asia,2015,28,7/6/15,7/12/15,10690,9973,1985,,,,,,,,,,,,
China,Western Pacific Region of WHO,Eastern Asia,2015,29,7/13/15,7/19/15,10009,9102,1681,,,,,,,,,,,,
China,Western Pacific Region of WHO,Eastern Asia,2015,30,7/20/15,7/26/15,9891,9295,1673,,,,,,,,,,,,
China,Western Pacific Region of WHO,Eastern Asia,2015,31,7/27/15,8/2/15,9509,8660,1618,,,,,,,,,,,,
China,Western Pacific Region of WHO,Eastern Asia,2015,32,8/3/15,8/9/15,9969,9392,1380,,,,,,,,,,,,
China,Western Pacific Region of WHO,Eastern Asia,2015,33,8/10/15,8/16/15,9777,9051,1169,,,,,,,,,,,,
China,Western Pacific Region of WHO,Eastern Asia,2015,34,8/17/15,8/23/15,9166,8173,996,,,,,,,,,,,,
China,Western Pacific Region of WHO,Eastern Asia,2015,35,8/24/15,8/30/15,9581,9000,932,,,,,,,,,,,,
China,Western Pacific Region of WHO,Eastern Asia,2015,36,8/31/15,9/6/15,8652,7763,613,,,,,,,,,,,,
China,Western Pacific Region of WHO,Eastern Asia,2015,37,9/7/15,9/13/15,9604,8960,551,,,,,,,,,,,,
China,Western Pacific Region of WHO,Eastern Asia,2015,38,9/14/15,9/20/15,9883,8794,371,,,,,,,,,,,,
China,Western Pacific Region of WHO,Eastern Asia,2015,39,9/21/15,9/27/15,9693,9013,259,,,,,,,,,,,,
China,Western Pacific Region of WHO,Eastern Asia,2015,40,9/28/15,10/4/15,9991,8707,201,,,,,,,,,,,,
China,Western Pacific Region of WHO,Eastern Asia,2015,41,10/5/15,10/11/15,11826,11173,229,,,,,,,,,,,,
China,Western Pacific Region of WHO,Eastern Asia,2015,42,10/12/15,10/18/15,13026,12057,219,,,,,,,,,,,,
China,Western Pacific Region of WHO,Eastern Asia,2015,43,10/19/15,10/25/15,13327,12792,260,,,,,,,,,,,,
China,Western Pacific Region of WHO,Eastern Asia,2015,44,10/26/15,11/1/15,13160,12614,194,,,,,,,,,,,,
China,Western Pacific Region of WHO,Eastern Asia,2015,45,11/2/15,11/8/15,13084,12170,202,,,,,,,,,,,,
China,Western Pacific Region of WHO,Eastern Asia,2015,46,11/9/15,11/15/15,23596,21021,460,,,,,,,,,,,,
China,Western Pacific Region of WHO,Eastern Asia,2015,47,11/16/15,11/22/15,12964,11278,292,,,,,,,,,,,,
China,Western Pacific Region of WHO,Eastern Asia,2015,48,11/23/15,11/29/15,10276,7685,193,,,,,,,,,,,,
China,Western Pacific Region of WHO,Eastern Asia,2015,49,11/30/15,12/6/15,14264,13490,580,,,,,,,,,,,,
China,Western Pacific Region of WHO,Eastern Asia,2015,50,12/7/15,12/13/15,14086,12944,796,,,,,,,,,,,,
China,Western Pacific Region of WHO,Eastern Asia,2015,51,12/14/15,12/20/15,14224,13730,1134,,,,,,,,,,,,
China,Western Pacific Region of WHO,Eastern Asia,2015,52,12/21/15,12/27/15,13960,13167,1391,,,,,,,,,,,,
China,Western Pacific Region of WHO,Eastern Asia,2015,53,12/28/15,1/3/16,3124,3124,97,,,,,,,,,,,,
China,Western Pacific Region of WHO,Eastern Asia,2016,1,1/4/16,1/10/16,14850,13072,2872,,,,,,,,,,,,
United States of America,Region of the Americas of WHO,North America,2009,1,12/29/08,1/4/09,6613,6613,357,,,,,,,,,,,,
United States of America,Region of the Americas of WHO,North America,2009,2,1/5/09,1/11/09,6980,6980,568,,,,,,,,,,,,
United States of America,Region of the Americas of WHO,North America,2009,3,1/12/09,1/18/09,7024,7024,742,,,,,,,,,,,,
United States of America,Region of the Americas of WHO,North America,2009,4,1/19/09,1/25/09,7959,7959,1254,,,,,,,,,,,,
United States of America,Region of the Americas of WHO,North America,2009,5,1/26/09,2/1/09,9496,9496,1953,,,,,,,,,,,,
United States of America,Region of the Americas of WHO,North America,2009,6,2/2/09,2/8/09,11750,11750,2797,,,,,,,,,,,,
United States of America,Region of the Americas of WHO,North America,2009,7,2/9/09,2/15/09,12716,12716,3195,,,,,,,,,,,,
United States of America,Region of the Americas of WHO,North America,2009,8,2/16/09,2/22/09,11801,11801,2906,,,,,,,,,,,,
United States of America,Region of the Americas of WHO,North America,2009,9,2/23/09,3/1/09,11983,11983,2915,,,,,,,,,,,,
United States of America,Region of the Americas of WHO,North America,2009,10,3/2/09,3/8/09,11020,11020,2652,,,,,,,,,,,,
United States of America,Region of the Americas of WHO,North America,2009,11,3/9/09,3/15/09,9679,9679,2150,,,,,,,,,,,,
United States of America,Region of the Americas of WHO,North America,2009,12,3/16/09,3/22/09,8726,8726,1782,,,,,,,,,,,,
United States of America,Region of the Americas of WHO,North America,2009,13,3/23/09,3/29/09,7425,7425,1243,,,,,,,,,,,,
United States of America,Region of the Americas of WHO,North America,2009,14,3/30/09,4/5/09,5835,5835,799,,,,,,,,,,,,
United States of America,Region of the Americas of WHO,North America,2009,15,4/6/09,4/12/09,5171,5171,553,,,,,,,,,,,,
United States of America,Region of the Americas of WHO,North America,2009,16,4/13/09,4/19/09,4713,4713,339,,,,,,,,,,,,
United States of America,Region of the Americas of WHO,North America,2009,17,4/20/09,4/26/09,4197,4197,282,,,,,,,,,,,,
United States of America,Region of the Americas of WHO,North America,2009,18,4/27/09,5/3/09,35381,35381,4289,,,,,,,,,,,,
United States of America,Region of the Americas of WHO,North America,2009,19,5/4/09,5/10/09,33653,33653,4921,,,,,,,,,,,,
United States of America,Region of the Americas of WHO,North America,2009,20,5/11/09,5/17/09,16456,16456,2949,,,,,,,,,,,,
United States of America,Region of the Americas of WHO,North America,2009,21,5/18/09,5/24/09,15035,15035,3875,,,,,,,,,,,,
United States of America,Region of the Americas of WHO,North America,2009,22,5/25/09,5/31/09,12971,12971,4134,,,,,,,,,,,,
United States of America,Region of the Americas of WHO,North America,2009,23,6/1/09,6/7/09,13036,13036,4997,,,,,,,,,,,,
United States of America,Region of the Americas of WHO,North America,2009,24,6/8/09,6/14/09,13284,13284,5422,,,,,,,,,,,,
United States of America,Region of the Americas of WHO,North America,2009,25,6/15/09,6/21/09,13847,13847,5923,,,,,,,,,,,,
United States of America,Region of the Americas of WHO,North America,2009,26,6/22/09,6/28/09,11940,11940,4252,,,,,,,,,,,,
United States of America,Region of the Americas of WHO,North America,2009,27,6/29/09,7/5/09,10510,10510,3263,,,,,,,,,,,,
United States of America,Region of the Americas of WHO,North America,2009,28,7/6/09,7/12/09,10271,10271,3255,,,,,,,,,,,,
United States of America,Region of the Americas of WHO,North America,2009,29,7/13/09,7/19/09,9520,9520,2641,,,,,,,,,,,,
United States of America,Region of the Americas of WHO,North America,2009,30,7/20/09,7/26/09,8323,8323,2299,,,,,,,,,,,,
United States of America,Region of the Americas of WHO,North America,2009,31,7/27/09,8/2/09,8851,8851,2713,,,,,,,,,,,,
United States of America,Region of the Americas of WHO,North America,2009,32,8/3/09,8/9/09,7896,7896,1814,,,,,,,,,,,,
United States of America,Region of the Americas of WHO,North America,2009,33,8/10/09,8/16/09,7988,7988,1718,,,,,,,,,,,,
United States of America,Region of the Americas of WHO,North America,2009,34,8/17/09,8/23/09,9135,9135,2103,,,,,,,,,,,,
United States of America,Region of the Americas of WHO,North America,2009,35,8/24/09,8/30/09,10937,10937,2145,,,,,,,,,,,,
United States of America,Region of the Americas of WHO,North America,2009,36,8/31/09,9/6/09,14443,14443,2990,,,,,,,,,,,,
United States of America,Region of the Americas of WHO,North America,2009,37,9/7/09,9/13/09,16842,16842,3774,,,,,,,,,,,,
United States of America,Region of the Americas of WHO,North America,2009,38,9/14/09,9/20/09,18726,18726,4337,,,,,,,,,,,,
United States of America,Region of the Americas of WHO,North America,2009,39,9/21/09,9/27/09,19498,19498,4610,,,,,,,,,,,,
United States of America,Region of the Americas of WHO,North America,2009,40,9/28/09,10/4/09,20564,20564,5738,,,,,,,,,,,,
United States of America,Region of the Americas of WHO,North America,2009,41,10/5/09,10/11/09,24567,24567,8189,,,,,,,,,,,,
United States of America,Region of the Americas of WHO,North America,2009,42,10/12/09,10/18/09,29035,29035,10858,,,,,,,,,,,,
United States of America,Region of the Americas of WHO,North America,2009,43,10/19/09,10/25/09,31866,31866,12111,,,,,,,,,,,,
United States of America,Region of the Americas of WHO,North America,2009,44,10/26/09,11/1/09,27992,27992,9770,,,,,,,,,,,,
United States of America,Region of the Americas of WHO,North America,2009,45,11/2/09,11/8/09,24861,24861,7581,,,,,,,,,,,,
United States of America,Region of the Americas of WHO,North America,2009,46,11/9/09,11/15/09,21720,21720,5797,,,,,,,,,,,,
United States of America,Region of the Americas of WHO,North America,2009,47,11/16/09,11/22/09,18198,18198,3454,,,,,,,,,,,,
United States of America,Region of the Americas of WHO,North America,2009,48,11/23/09,11/29/09,13199,13199,1867,,,,,,,,,,,,
United States of America,Region of the Americas of WHO,North America,2009,49,11/30/09,12/6/09,12978,12978,1323,,,,,,,,,,,,
United States of America,Region of the Americas of WHO,North America,2009,50,12/7/09,12/13/09,11195,11195,802,,,,,,,,,,,,
United States of America,Region of the Americas of WHO,North America,2009,51,12/14/09,12/20/09,10473,10473,661,,,,,,,,,,,,
United States of America,Region of the Americas of WHO,North America,2009,52,12/21/09,12/27/09,8437,8437,392,,,,,,,,,,,,
United States of America,Region of the Americas of WHO,North America,2009,53,12/28/09,1/3/10,9454,9454,428,,,,,,,,,,,,
United States of America,Region of the Americas of WHO,North America,2010,1,1/4/10,1/10/10,9600,9600,366,,,,,,,,,,,,
United States of America,Region of the Americas of WHO,North America,2010,2,1/11/10,1/17/10,8678,8678,396,,,,,,,,,,,,
United States of America,Region of the Americas of WHO,North America,2010,3,1/18/10,1/24/10,8626,8626,447,,,,,,,,,,,,
United States of America,Region of the Americas of WHO,North America,2010,4,1/25/10,1/31/10,8622,8622,402,,,,,,,,,,,,
United States of America,Region of the Americas of WHO,North America,2010,5,2/1/10,2/7/10,8485,8485,404,,,,,,,,,,,,
United States of America,Region of the Americas of WHO,North America,2010,6,2/8/10,2/14/10,8270,8270,361,,,,,,,,,,,,
United States of America,Region of the Americas of WHO,North America,2010,7,2/15/10,2/21/10,8463,8463,380,,,,,,,,,,,,
United States of America,Region of the Americas of WHO,North America,2010,8,2/22/10,2/28/10,8106,8106,424,,,,,,,,,,,,
United States of America,Region of the Americas of WHO,North America,2010,9,3/1/10,3/7/10,7620,7620,445,,,,,,,,,,,,
United States of America,Region of the Americas of WHO,North America,2010,10,3/8/10,3/14/10,7525,7525,475,,,,,,,,,,,,
United States of America,Region of the Americas of WHO,North America,2010,11,3/15/10,3/21/10,6500,6500,351,,,,,,,,,,,,
United States of America,Region of the Americas of WHO,North America,2010,12,3/22/10,3/28/10,5645,5645,246,,,,,,,,,,,,
United States of America,Region of the Americas of WHO,North America,2010,13,3/29/10,4/4/10,5285,5285,237,,,,,,,,,,,,
United States of America,Region of the Americas of WHO,North America,2010,14,4/5/10,4/11/10,4567,4567,127,,,,,,,,,,,,
United States of America,Region of the Americas of WHO,North America,2010,15,4/12/10,4/18/10,3993,3993,79,,,,,,,,,,,,
United States of America,Region of the Americas of WHO,North America,2010,16,4/19/10,4/25/10,3816,3816,52,,,,,,,,,,,,
United States of America,Region of the Americas of WHO,North America,2010,17,4/26/10,5/2/10,3754,3754,37,,,,,,,,,,,,
United States of America,Region of the Americas of WHO,North America,2010,18,5/3/10,5/9/10,3142,3142,31,,,,,,,,,,,,
United States of America,Region of the Americas of WHO,North America,2010,19,5/10/10,5/16/10,2845,2845,26,,,,,,,,,,,,
United States of America,Region of the Americas of WHO,North America,2010,20,5/17/10,5/23/10,2921,2921,19,,,,,,,,,,,,
United States of America,Region of the Americas of WHO,North America,2010,21,5/24/10,5/30/10,2711,2711,8,,,,,,,,,,,,
United States of America,Region of the Americas of WHO,North America,2010,22,5/31/10,6/6/10,2196,2196,8,,,,,,,,,,,,
United States of America,Region of the Americas of WHO,North America,2010,23,6/7/10,6/13/10,2190,2190,8,,,,,,,,,,,,
United States of America,Region of the Americas of WHO,North America,2010,24,6/14/10,6/20/10,2077,2077,11,,,,,,,,,,,,
United States of America,Region of the Americas of WHO,North America,2010,25,6/21/10,6/27/10,1975,1975,11,,,,,,,,,,,,
United States of America,Region of the Americas of WHO,North America,2010,26,6/28/10,7/4/10,1846,1846,7,,,,,,,,,,,,
United States of America,Region of the Americas of WHO,North America,2010,27,7/5/10,7/11/10,1623,1623,4,,,,,,,,,,,,
United States of America,Region of the Americas of WHO,North America,2010,28,7/12/10,7/18/10,1634,1634,10,,,,,,,,,,,,
United States of America,Region of the Americas of WHO,North America,2010,29,7/19/10,7/25/10,1589,1589,12,,,,,,,,,,,,
United States of America,Region of the Americas of WHO,North America,2010,30,7/26/10,8/1/10,1706,1760,24,,,,,,,,,,,,
United States of America,Region of the Americas of WHO,North America,2010,31,8/2/10,8/8/10,1559,1559,19,,,,,,,,,,,,
United States of America,Region of the Americas of WHO,North America,2010,32,8/9/10,8/15/10,1702,1702,32,,,,,,,,,,,,
United States of America,Region of the Americas of WHO,North America,2010,33,8/16/10,8/22/10,1816,1816,21,,,,,,,,,,,,
United States of America,Region of the Americas of WHO,North America,2010,34,8/23/10,8/29/10,2001,2001,45,,,,,,,,,,,,
United States of America,Region of the Americas of WHO,North America,2010,35,8/30/10,9/5/10,2282,2282,34,,,,,,,,,,,,
United States of America,Region of the Americas of WHO,North America,2010,36,9/6/10,9/12/10,2397,2397,46,,,,,,,,,,,,
United States of America,Region of the Americas of WHO,North America,2010,37,9/13/10,9/19/10,2769,2769,64,,,,,,,,,,,,
United States of America,Region of the Americas of WHO,North America,2010,38,9/20/10,9/26/10,2870,2870,67,,,,,,,,,,,,
United States of America,Region of the Americas of WHO,North America,2010,39,9/27/10,10/3/10,3063,3063,62,,,,,,,,,,,,
United States of America,Region of the Americas of WHO,North America,2010,40,10/4/10,10/10/10,3724,3724,77,,,,,,,,,,,,
United States of America,Region of the Americas of WHO,North America,2010,41,10/11/10,10/17/10,4100,4100,128,,,,,,,,,,,,
United States of America,Region of the Americas of WHO,North America,2010,42,10/18/10,10/24/10,4239,4239,141,,,,,,,,,,,,
United States of America,Region of the Americas of WHO,North America,2010,43,10/25/10,10/31/10,4351,4351,168,,,,,,,,,,,,
United States of America,Region of the Americas of WHO,North America,2010,44,11/1/10,11/7/10,4734,4734,247,,,,,,,,,,,,
United States of America,Region of the Americas of WHO,North America,2010,45,11/8/10,11/14/10,5553,5553,352,,,,,,,,,,,,
United States of America,Region of the Americas of WHO,North America,2010,46,11/15/10,11/21/10,5766,5766,491,,,,,,,,,,,,
United States of America,Region of the Americas of WHO,North America,2010,47,11/22/10,11/28/10,5650,5650,588,,,,,,,,,,,,
United States of America,Region of the Americas of WHO,North America,2010,48,11/29/10,12/5/10,6187,6187,609,,,,,,,,,,,,
United States of America,Region of the Americas of WHO,North America,2010,49,12/6/10,12/12/10,6341,6341,843,,,,,,,,,,,,
United States of America,Region of the Americas of WHO,North America,2010,50,12/13/10,12/19/10,7564,7564,1438,,,,,,,,,,,,
United States of America,Region of the Americas of WHO,North America,2010,51,12/20/10,12/26/10,8000,8000,1998,,,,,,,,,,,,
United States of America,Region of the Americas of WHO,North America,2010,52,12/27/10,1/2/11,9088,9088,2375,,,,,,,,,,,,
United States of America,Region of the Americas of WHO,North America,2011,1,1/3/11,1/9/11,10510,10510,2645,,,,,,,,,,,,
United States of America,Region of the Americas of WHO,North America,2011,2,1/10/11,1/16/11,10251,10251,3027,,,,,,,,,,,,
United States of America,Region of the Americas of WHO,North America,2011,3,1/17/11,1/23/11,11113,11113,3724,,,,,,,,,,,,
United States of America,Region of the Americas of WHO,North America,2011,4,1/24/11,1/30/11,12929,12929,4439,,,,,,,,,,,,
United States of America,Region of the Americas of WHO,North America,2011,5,1/31/11,2/6/11,13860,13860,4919,,,,,,,,,,,,
United States of America,Region of the Americas of WHO,North America,2011,6,2/7/11,2/13/11,14670,14670,5086,,,,,,,,,,,,
United States of America,Region of the Americas of WHO,North America,2011,7,2/14/11,2/20/11,16411,16411,5743,,,,,,,,,,,,
United States of America,Region of the Americas of WHO,North America,2011,8,2/21/11,2/27/11,14466,14466,4599,,,,,,,,,,,,
United States of America,Region of the Americas of WHO,North America,2011,9,2/28/11,3/6/11,12923,12923,3566,,,,,,,,,,,,
United States of America,Region of the Americas of WHO,North America,2011,10,3/7/11,3/13/11,11377,11377,2667,,,,,,,,,,,,
United States of America,Region of the Americas of WHO,North America,2011,11,3/14/11,3/20/11,9644,9644,1950,,,,,,,,,,,,
United States of America,Region of the Americas of WHO,North America,2011,12,3/21/11,3/27/11,8378,8378,1356,,,,,,,,,,,,
United States of America,Region of the Americas of WHO,North America,2011,13,3/28/11,4/3/11,6971,6971,883,,,,,,,,,,,,
United States of America,Region of the Americas of WHO,North America,2011,14,4/4/11,4/10/11,6398,6398,629,,,,,,,,,,,,
United States of America,Region of the Americas of WHO,North America,2011,15,4/11/11,4/17/11,5331,5331,393,,,,,,,,,,,,
United States of America,Region of the Americas of WHO,North America,2011,16,4/18/11,4/24/11,4403,4403,193,,,,,,,,,,,,
United States of America,Region of the Americas of WHO,North America,2011,17,4/25/11,5/1/11,3745,3745,125,,,,,,,,,,,,
United States of America,Region of the Americas of WHO,North America,2011,18,5/2/11,5/8/11,3255,3255,62,,,,,,,,,,,,
United States of America,Region of the Americas of WHO,North America,2011,19,5/9/11,5/15/11,3009,3009,38,,,,,,,,,,,,
United States of America,Region of the Americas of WHO,North America,2011,20,5/16/11,5/22/11,2645,2645,19,,,,,,,,,,,,
United States of America,Region of the Americas of WHO,North America,2011,21,5/23/11,5/29/11,2374,2374,16,,,,,,,,,,,,
United States of America,Region of the Americas of WHO,North America,2011,22,5/30/11,6/5/11,2085,2085,12,,,,,,,,,,,,
United States of America,Region of the Americas of WHO,North America,2011,23,6/6/11,6/12/11,1911,1911,5,,,,,,,,,,,,
United States of America,Region of the Americas of WHO,North America,2011,24,6/13/11,6/19/11,1798,1798,9,,,,,,,,,,,,
United States of America,Region of the Americas of WHO,North America,2011,25,6/20/11,6/26/11,1701,1701,2,,,,,,,,,,,,
United States of America,Region of the Americas of WHO,North America,2011,26,6/27/11,7/3/11,1354,1354,4,,,,,,,,,,,,
United States of America,Region of the Americas of WHO,North America,2011,27,7/4/11,7/10/11,1317,1317,5,,,,,,,,,,,,
United States of America,Region of the Americas of WHO,North America,2011,28,7/11/11,7/17/11,1278,1278,6,,,,,,,,,,,,
United States of America,Region of the Americas of WHO,North America,2011,29,7/18/11,7/24/11,1317,1317,8,,,,,,,,,,,,
United States of America,Region of the Americas of WHO,North America,2011,30,7/25/11,7/31/11,1145,1145,3,,,,,,,,,,,,
United States of America,Region of the Americas of WHO,North America,2011,31,8/1/11,8/7/11,1229,1229,10,,,,,,,,,,,,
United States of America,Region of the Americas of WHO,North America,2011,32,8/8/11,8/14/11,1263,1263,11,,,,,,,,,,,,
United States of America,Region of the Americas of WHO,North America,2011,33,8/15/11,8/21/11,1406,1406,16,,,,,,,,,,,,
United States of America,Region of the Americas of WHO,North America,2011,34,8/22/11,8/28/11,1518,1518,17,,,,,,,,,,,,
United States of America,Region of the Americas of WHO,North America,2011,35,8/29/11,9/4/11,1634,1634,14,,,,,,,,,,,,
United States of America,Region of the Americas of WHO,North America,2011,36,9/5/11,9/11/11,1766,1766,13,,,,,,,,,,,,
United States of America,Region of the Americas of WHO,North America,2011,37,9/12/11,9/18/11,1901,1901,19,,,,,,,,,,,,
United States of America,Region of the Americas of WHO,North America,2011,38,9/19/11,9/25/11,2147,2147,20,,,,,,,,,,,,
United States of America,Region of the Americas of WHO,North America,2011,39,9/26/11,10/2/11,2152,2152,26,,,,,,,,,,,,
United States of America,Region of the Americas of WHO,North America,2011,40,10/3/11,10/9/11,3197,3197,33,,,,,,,,,,,,
United States of America,Region of the Americas of WHO,North America,2011,41,10/10/11,10/16/11,3319,3319,19,,,,,,,,,,,,
United States of America,Region of the Americas of WHO,North America,2011,42,10/17/11,10/23/11,3433,3433,28,,,,,,,,,,,,
United States of America,Region of the Americas of WHO,North America,2011,43,10/24/11,10/30/11,3707,3707,43,,,,,,,,,,,,
United States of America,Region of the Americas of WHO,North America,2011,44,10/31/11,11/6/11,4038,4038,38,,,,,,,,,,,,
United States of America,Region of the Americas of WHO,North America,2011,45,11/7/11,11/13/11,4255,4255,49,,,,,,,,,,,,
United States of America,Region of the Americas of WHO,North America,2011,46,11/14/11,11/20/11,4503,4503,43,,,,,,,,,,,,
United States of America,Region of the Americas of WHO,North America,2011,47,11/21/11,11/27/11,4071,4071,75,,,,,,,,,,,,
United States of America,Region of the Americas of WHO,North America,2011,48,11/28/11,12/4/11,4636,4636,73,,,,,,,,,,,,
United States of America,Region of the Americas of WHO,North America,2011,49,12/5/11,12/11/11,4667,4667,106,,,,,,,,,,,,
United States of America,Region of the Americas of WHO,North America,2011,50,12/12/11,12/18/11,4859,4859,129,,,,,,,,,,,,
United States of America,Region of the Americas of WHO,North America,2011,51,12/19/11,12/25/11,4981,4981,192,,,,,,,,,,,,
United States of America,Region of the Americas of WHO,North America,2011,52,12/26/11,1/1/12,5331,5331,175,,,,,,,,,,,,
United States of America,Region of the Americas of WHO,North America,2012,1,1/2/12,1/8/12,5558,5558,177,,,,,,,,,,,,
United States of America,Region of the Americas of WHO,North America,2012,2,1/9/12,1/15/12,5276,5276,229,,,,,,,,,,,,
United States of America,Region of the Americas of WHO,North America,2012,3,1/16/12,1/22/12,5259,5259,312,,,,,,,,,,,,
United States of America,Region of the Americas of WHO,North America,2012,4,1/23/12,1/29/12,5775,5775,466,,,,,,,,,,,,
United States of America,Region of the Americas of WHO,North America,2012,5,1/30/12,2/5/12,5862,5862,658,,,,,,,,,,,,
United States of America,Region of the Americas of WHO,North America,2012,6,2/6/12,2/12/12,6111,6111,797,,,,,,,,,,,,
United States of America,Region of the Americas of WHO,North America,2012,7,2/13/12,2/19/12,6837,6837,1050,,,,,,,,,,,,
United States of America,Region of the Americas of WHO,North America,2012,8,2/20/12,2/26/12,7110,7110,1386,,,,,,,,,,,,
United States of America,Region of the Americas of WHO,North America,2012,9,2/27/12,3/4/12,8029,8029,1928,,,,,,,,,,,,
United States of America,Region of the Americas of WHO,North America,2012,10,3/5/12,3/11/12,7979,7979,2282,,,,,,,,,,,,
United States of America,Region of the Americas of WHO,North America,2012,11,3/12/12,3/18/12,8295,8295,2646,,,,,,,,,,,,
United States of America,Region of the Americas of WHO,North America,2012,12,3/19/12,3/25/12,7611,7611,2171,,,,,,,,,,,,
United States of America,Region of the Americas of WHO,North America,2012,13,3/26/12,4/1/12,7037,7037,1561,,,,,,,,,,,,
United States of America,Region of the Americas of WHO,North America,2012,14,4/2/12,4/8/12,6250,6250,1446,,,,,,,,,,,,
United States of America,Region of the Americas of WHO,North America,2012,15,4/9/12,4/15/12,5918,5918,1254,,,,,,,,,,,,
United States of America,Region of the Americas of WHO,North America,2012,16,4/16/12,4/22/12,5454,5454,1157,,,,,,,,,,,,
United States of America,Region of the Americas of WHO,North America,2012,17,4/23/12,4/29/12,4650,4650,851,,,,,,,,,,,,
United States of America,Region of the Americas of WHO,North America,2012,18,4/30/12,5/6/12,4194,4194,720,,,,,,,,,,,,
United States of America,Region of the Americas of WHO,North America,2012,19,5/7/12,5/13/12,3779,3779,614,,,,,,,,,,,,
United States of America,Region of the Americas of WHO,North America,2012,20,5/14/12,5/20/12,3564,3564,510,,,,,,,,,,,,
United States of America,Region of the Americas of WHO,North America,2012,21,5/21/12,5/27/12,3470,3470,422,,,,,,,,,,,,
United States of America,Region of the Americas of WHO,North America,2012,22,5/28/12,6/3/12,3015,3015,371,,,,,,,,,,,,
United States of America,Region of the Americas of WHO,North America,2012,23,6/4/12,6/10/12,2986,2986,304,,,,,,,,,,,,
United States of America,Region of the Americas of WHO,North America,2012,24,6/11/12,6/17/12,2724,2724,303,,,,,,,,,,,,
United States of America,Region of the Americas of WHO,North America,2012,25,6/18/12,6/24/12,2343,2343,172,,,,,,,,,,,,
United States of America,Region of the Americas of WHO,North America,2012,26,6/25/12,7/1/12,2116,2116,168,,,,,,,,,,,,
United States of America,Region of the Americas of WHO,North America,2012,27,7/2/12,7/8/12,1817,1817,91,,,,,,,,,,,,
United States of America,Region of the Americas of WHO,North America,2012,28,7/9/12,7/15/12,1908,1908,99,,,,,,,,,,,,
United States of America,Region of the Americas of WHO,North America,2012,29,7/16/12,7/22/12,1933,1933,76,,,,,,,,,,,,
United States of America,Region of the Americas of WHO,North America,2012,30,7/23/12,7/29/12,1927,1927,101,,,,,,,,,,,,
United States of America,Region of the Americas of WHO,North America,2012,31,7/30/12,8/5/12,1939,1939,200,,,,,,,,,,,,
United States of America,Region of the Americas of WHO,North America,2012,32,8/6/12,8/12/12,2118,2118,173,,,,,,,,,,,,
United States of America,Region of the Americas of WHO,North America,2012,33,8/13/12,8/19/12,2236,2236,164,,,,,,,,,,,,
United States of America,Region of the Americas of WHO,North America,2012,34,8/20/12,8/26/12,2392,2392,109,,,,,,,,,,,,
United States of America,Region of the Americas of WHO,North America,2012,35,8/27/12,9/2/12,2444,2444,87,,,,,,,,,,,,
United States of America,Region of the Americas of WHO,North America,2012,36,9/3/12,9/9/12,2598,2598,87,,,,,,,,,,,,
United States of America,Region of the Americas of WHO,North America,2012,37,9/10/12,9/16/12,2909,2909,78,,,,,,,,,,,,
United States of America,Region of the Americas of WHO,North America,2012,38,9/17/12,9/23/12,3123,3123,96,,,,,,,,,,,,
United States of America,Region of the Americas of WHO,North America,2012,39,9/24/12,9/30/12,2476,2476,89,,,,,,,,,,,,
United States of America,Region of the Americas of WHO,North America,2012,40,10/1/12,10/7/12,4345,4345,163,,,,,,,,,,,,
United States of America,Region of the Americas of WHO,North America,2012,41,10/8/12,10/14/12,4716,4716,197,,,,,,,,,,,,
United States of America,Region of the Americas of WHO,North America,2012,42,10/15/12,10/21/12,5009,5009,300,,,,,,,,,,,,
United States of America,Region of the Americas of WHO,North America,2012,43,10/22/12,10/28/12,4913,4913,339,,,,,,,,,,,,
United States of America,Region of the Americas of WHO,North America,2012,44,10/29/12,11/4/12,5149,5149,409,,,,,,,,,,,,
United States of America,Region of the Americas of WHO,North America,2012,45,11/5/12,11/11/12,6134,6134,619,,,,,,,,,,,,
United States of America,Region of the Americas of WHO,North America,2012,46,11/12/12,11/18/12,6365,6365,851,,,,,,,,,,,,
United States of America,Region of the Americas of WHO,North America,2012,47,11/19/12,11/25/12,7115,7115,1368,,,,,,,,,,,,
United States of America,Region of the Americas of WHO,North America,2012,48,11/26/12,12/2/12,8884,8884,2038,,,,,,,,,,,,
United States of America,Region of the Americas of WHO,North America,2012,49,12/3/12,12/9/12,11471,11471,3432,,,,,,,,,,,,
United States of America,Region of the Americas of WHO,North America,2012,50,12/10/12,12/16/12,13885,13885,4584,,,,,,,,,,,,
United States of America,Region of the Americas of WHO,North America,2012,51,12/17/12,12/23/12,15667,15667,5929,,,,,,,,,,,,
United States of America,Region of the Americas of WHO,North America,2012,52,12/24/12,12/30/12,16881,16881,6445,,,,,,,,,,,,
United States of America,Region of the Americas of WHO,North America,2013,1,12/31/12,1/6/13,18219,18219,6474,,,,,,,,,,,,
United States of America,Region of the Americas of WHO,North America,2013,2,1/7/13,1/13/13,20013,20013,6897,,,,,,,,,,,,
United States of America,Region of the Americas of WHO,North America,2013,3,1/14/13,1/20/13,19228,19228,5936,,,,,,,,,,,,
United States of America,Region of the Americas of WHO,North America,2013,4,1/21/13,1/27/13,17139,17139,5130,,,,,,,,,,,,
United States of America,Region of the Americas of WHO,North America,2013,5,1/28/13,2/3/13,14795,14795,4039,,,,,,,,,,,,
United States of America,Region of the Americas of WHO,North America,2013,6,2/4/13,2/10/13,13259,13259,3059,,,,,,,,,,,,
United States of America,Region of the Americas of WHO,North America,2013,7,2/11/13,2/17/13,11468,11468,2385,,,,,,,,,,,,
United States of America,Region of the Americas of WHO,North America,2013,8,2/18/13,2/24/13,10398,10398,2069,,,,,,,,,,,,
United States of America,Region of the Americas of WHO,North America,2013,9,2/25/13,3/3/13,9499,9499,1776,,,,,,,,,,,,
United States of America,Region of the Americas of WHO,North America,2013,10,3/4/13,3/10/13,8999,8999,1645,,,,,,,,,,,,
United States of America,Region of the Americas of WHO,North America,2013,11,3/11/13,3/17/13,8733,8733,1452,,,,,,,,,,,,
United States of America,Region of the Americas of WHO,North America,2013,12,3/18/13,3/24/13,7849,7849,1219,,,,,,,,,,,,
United States of America,Region of the Americas of WHO,North America,2013,13,3/25/13,3/31/13,6635,6635,953,,,,,,,,,,,,
United States of America,Region of the Americas of WHO,North America,2013,14,4/1/13,4/7/13,6311,6311,893,,,,,,,,,,,,
United States of America,Region of the Americas of WHO,North America,2013,15,4/8/13,4/14/13,5779,5779,631,,,,,,,,,,,,
United States of America,Region of the Americas of WHO,North America,2013,16,4/15/13,4/21/13,5229,5229,454,,,,,,,,,,,,
United States of America,Region of the Americas of WHO,North America,2013,17,4/22/13,4/28/13,4518,4518,379,,,,,,,,,,,,
United States of America,Region of the Americas of WHO,North America,2013,18,4/29/13,5/5/13,4317,4317,293,,,,,,,,,,,,
United States of America,Region of the Americas of WHO,North America,2013,19,5/6/13,5/12/13,3917,3917,249,,,,,,,,,,,,
United States of America,Region of the Americas of WHO,North America,2013,20,5/13/13,5/19/13,3562,3562,174,,,,,,,,,,,,
United States of America,Region of the Americas of WHO,North America,2013,21,5/20/13,5/26/13,3488,3488,161,,,,,,,,,,,,
United States of America,Region of the Americas of WHO,North America,2013,22,5/27/13,6/2/13,3207,3207,148,,,,,,,,,,,,
United States of America,Region of the Americas of WHO,North America,2013,23,6/3/13,6/9/13,3167,3167,129,,,,,,,,,,,,
United States of America,Region of the Americas of WHO,North America,2013,24,6/10/13,6/16/13,2893,2893,126,,,,,,,,,,,,
United States of America,Region of the Americas of WHO,North America,2013,25,6/17/13,6/23/13,2811,2811,95,,,,,,,,,,,,
United States of America,Region of the Americas of WHO,North America,2013,26,6/24/13,6/30/13,2591,2591,65,,,,,,,,,,,,
United States of America,Region of the Americas of WHO,North America,2013,27,7/1/13,7/7/13,2256,2256,67,,,,,,,,,,,,
United States of America,Region of the Americas of WHO,North America,2013,28,7/8/13,7/14/13,2337,2337,79,,,,,,,,,,,,
United States of America,Region of the Americas of WHO,North America,2013,29,7/15/13,7/21/13,2212,2212,56,,,,,,,,,,,,
United States of America,Region of the Americas of WHO,North America,2013,30,7/22/13,7/28/13,2050,2050,60,,,,,,,,,,,,
United States of America,Region of the Americas of WHO,North America,2013,31,7/29/13,8/4/13,2246,2246,75,,,,,,,,,,,,
United States of America,Region of the Americas of WHO,North America,2013,32,8/5/13,8/11/13,2195,2195,63,,,,,,,,,,,,
United States of America,Region of the Americas of WHO,North America,2013,33,8/12/13,8/18/13,1968,1968,58,,,,,,,,,,,,
United States of America,Region of the Americas of WHO,North America,2013,34,8/19/13,8/25/13,2187,2187,58,,,,,,,,,,,,
United States of America,Region of the Americas of WHO,North America,2013,35,8/26/13,9/1/13,2674,2674,120,,,,,,,,,,,,
United States of America,Region of the Americas of WHO,North America,2013,36,9/2/13,9/8/13,2825,2825,113,,,,,,,,,,,,
United States of America,Region of the Americas of WHO,North America,2013,37,9/9/13,9/15/13,3190,3190,122,,,,,,,,,,,,
United States of America,Region of the Americas of WHO,North America,2013,38,9/16/13,9/22/13,3400,3400,117,,,,,,,,,,,,
United States of America,Region of the Americas of WHO,North America,2013,39,9/23/13,9/29/13,3890,3890,137,,,,,,,,,,,,
United States of America,Region of the Americas of WHO,North America,2013,40,9/30/13,10/6/13,4407,4407,185,,,,,,,,,,,,
United States of America,Region of the Americas of WHO,North America,2013,41,10/7/13,10/13/13,5244,5244,221,,,,,,,,,,,,
United States of America,Region of the Americas of WHO,North America,2013,42,10/14/13,10/20/13,5320,5320,175,,,,,,,,,,,,
United States of America,Region of the Americas of WHO,North America,2013,43,10/21/13,10/27/13,5402,5402,197,,,,,,,,,,,,
United States of America,Region of the Americas of WHO,North America,2013,44,10/28/13,11/3/13,5853,5853,274,,,,,,,,,,,,
United States of America,Region of the Americas of WHO,North America,2013,45,11/4/13,11/10/13,6765,6765,394,,,,,,,,,,,,
United States of America,Region of the Americas of WHO,North America,2013,46,11/11/13,11/17/13,6963,6963,520,,,,,,,,,,,,
United States of America,Region of the Americas of WHO,North America,2013,47,11/18/13,11/24/13,7569,7569,703,,,,,,,,,,,,
United States of America,Region of the Americas of WHO,North America,2013,48,11/25/13,12/1/13,7118,7118,863,,,,,,,,,,,,
United States of America,Region of the Americas of WHO,North America,2013,49,12/2/13,12/8/13,9628,9628,1722,,,,,,,,,,,,
United States of America,Region of the Americas of WHO,North America,2013,50,12/9/13,12/15/13,9942,9942,1968,,,,,,,,,,,,
United States of America,Region of the Americas of WHO,North America,2013,51,12/16/13,12/22/13,13165,13165,3685,,,,,,,,,,,,
United States of America,Region of the Americas of WHO,North America,2013,52,12/23/13,12/29/13,14631,14631,4478,,,,,,,,,,,,
United States of America,Region of the Americas of WHO,North America,2014,1,12/30/13,1/5/14,16955,16955,4982,,,,,,,,,,,,
United States of America,Region of the Americas of WHO,North America,2014,2,1/6/14,1/12/14,16829,16829,4636,,,,,,,,,,,,
United States of America,Region of the Americas of WHO,North America,2014,3,1/13/14,1/19/14,16051,16051,4243,,,,,,,,,,,,
United States of America,Region of the Americas of WHO,North America,2014,4,1/20/14,1/26/14,15130,15130,3613,,,,,,,,,,,,
United States of America,Region of the Americas of WHO,North America,2014,5,1/27/14,2/2/14,13460,13460,2708,,,,,,,,,,,,
United States of America,Region of the Americas of WHO,North America,2014,6,2/3/14,2/9/14,12072,12072,2289,,,,,,,,,,,,
United States of America,Region of the Americas of WHO,North America,2014,7,2/10/14,2/16/14,10991,10991,1812,,,,,,,,,,,,
United States of America,Region of the Americas of WHO,North America,2014,8,2/17/14,2/23/14,10451,10451,1373,,,,,,,,,,,,
United States of America,Region of the Americas of WHO,North America,2014,9,2/24/14,3/2/14,9349,9349,1026,,,,,,,,,,,,
United States of America,Region of the Americas of WHO,North America,2014,10,3/3/14,3/9/14,8995,8995,974,,,,,,,,,,,,
United States of America,Region of the Americas of WHO,North America,2014,11,3/10/14,3/16/14,8282,8282,930,,,,,,,,,,,,
United States of America,Region of the Americas of WHO,North America,2014,12,3/17/14,3/23/14,7617,7617,919,,,,,,,,,,,,
United States of America,Region of the Americas of WHO,North America,2014,13,3/24/14,3/30/14,7327,7327,933,,,,,,,,,,,,
United States of America,Region of the Americas of WHO,North America,2014,14,3/31/14,4/6/14,7024,7024,939,,,,,,,,,,,,
United States of America,Region of the Americas of WHO,North America,2014,15,4/7/14,4/13/14,6661,6661,954,,,,,,,,,,,,
United States of America,Region of the Americas of WHO,North America,2014,16,4/14/14,4/20/14,6167,6167,796,,,,,,,,,,,,
United States of America,Region of the Americas of WHO,North America,2014,17,4/21/14,4/27/14,5521,5521,717,,,,,,,,,,,,
United States of America,Region of the Americas of WHO,North America,2014,18,4/28/14,5/4/14,5571,5571,697,,,,,,,,,,,,
United States of America,Region of the Americas of WHO,North America,2014,19,5/5/14,5/11/14,5221,5221,561,,,,,,,,,,,,
United States of America,Region of the Americas of WHO,North America,2014,20,5/12/14,5/18/14,5044,5044,496,,,,,,,,,,,,
United States of America,Region of the Americas of WHO,North America,2014,21,5/19/14,5/25/14,4544,4544,385,,,,,,,,,,,,
United States of America,Region of the Americas of WHO,North America,2014,22,5/26/14,6/1/14,4516,4516,396,,,,,,,,,,,,
United States of America,Region of the Americas of WHO,North America,2014,23,6/2/14,6/8/14,4063,4063,270,,,,,,,,,,,,
United States of America,Region of the Americas of WHO,North America,2014,24,6/9/14,6/15/14,3963,3963,290,,,,,,,,,,,,
United States of America,Region of the Americas of WHO,North America,2014,25,6/16/14,6/22/14,3694,3694,221,,,,,,,,,,,,
United States of America,Region of the Americas of WHO,North America,2014,26,6/23/14,6/29/14,3358,3358,170,,,,,,,,,,,,
United States of America,Region of the Americas of WHO,North America,2014,27,6/30/14,7/6/14,3020,3020,153,,,,,,,,,,,,
United States of America,Region of the Americas of WHO,North America,2014,28,7/7/14,7/13/14,2917,2917,144,,,,,,,,,,,,
United States of America,Region of the Americas of WHO,North America,2014,29,7/14/14,7/20/14,2764,2761,94,,,,,,,,,,,,
United States of America,Region of the Americas of WHO,North America,2014,30,7/21/14,7/27/14,3042,3042,115,,,,,,,,,,,,
United States of America,Region of the Americas of WHO,North America,2014,31,7/28/14,8/3/14,2827,2827,94,,,,,,,,,,,,
United States of America,Region of the Americas of WHO,North America,2014,32,8/4/14,8/10/14,2820,2820,79,,,,,,,,,,,,
United States of America,Region of the Americas of WHO,North America,2014,33,8/11/14,8/17/14,3241,3241,112,,,,,,,,,,,,
United States of America,Region of the Americas of WHO,North America,2014,34,8/18/14,8/24/14,3304,3304,106,,,,,,,,,,,,
United States of America,Region of the Americas of WHO,North America,2014,35,8/25/14,8/31/14,3915,3915,133,,,,,,,,,,,,
United States of America,Region of the Americas of WHO,North America,2014,36,9/1/14,9/7/14,4147,4147,111,,,,,,,,,,,,
United States of America,Region of the Americas of WHO,North America,2014,37,9/8/14,9/14/14,5231,5231,129,,,,,,,,,,,,
United States of America,Region of the Americas of WHO,North America,2014,38,9/15/14,9/21/14,5592,5592,171,,,,,,,,,,,,
United States of America,Region of the Americas of WHO,North America,2014,39,9/22/14,9/28/14,5809,5809,200,,,,,,,,,,,,
United States of America,Region of the Americas of WHO,North America,2014,40,9/29/14,10/5/14,9567,9567,309,,,,,,,,,,,,
United States of America,Region of the Americas of WHO,North America,2014,41,10/6/14,10/12/14,11036,11036,439,,,,,,,,,,,,
United States of America,Region of the Americas of WHO,North America,2014,42,10/13/14,10/19/14,11729,11729,584,,,,,,,,,,,,
United States of America,Region of the Americas of WHO,North America,2014,43,10/20/14,10/26/14,11385,11385,544,,,,,,,,,,,,
United States of America,Region of the Americas of WHO,North America,2014,44,10/27/14,11/2/14,11525,11525,726,,,,,,,,,,,,
United States of America,Region of the Americas of WHO,North America,2014,45,11/3/14,11/9/14,12918,12918,1156,,,,,,,,,,,,
United States of America,Region of the Americas of WHO,North America,2014,46,11/10/14,11/16/14,13776,13776,1416,,,,,,,,,,,,
United States of America,Region of the Americas of WHO,North America,2014,47,11/17/14,11/23/14,16166,16166,2402,,,,,,,,,,,,
United States of America,Region of the Americas of WHO,North America,2014,48,11/24/14,11/30/14,18504,18504,3624,,,,,,,,,,,,
United States of America,Region of the Americas of WHO,North America,2014,49,12/1/14,12/7/14,21961,21961,4947,,,,,,,,,,,,
United States of America,Region of the Americas of WHO,North America,2014,50,12/8/14,12/14/14,29214,29214,8182,,,,,,,,,,,,
United States of America,Region of the Americas of WHO,North America,2014,51,12/15/14,12/21/14,37109,37109,11464,,,,,,,,,,,,
United States of America,Region of the Americas of WHO,North America,2014,52,12/22/14,12/28/14,42466,42466,13747,,,,,,,,,,,,
United States of America,Region of the Americas of WHO,North America,2015,1,12/29/14,1/4/15,41579,41579,11406,,,,,,,,,,,,
United States of America,Region of the Americas of WHO,North America,2015,2,1/5/15,1/11/15,38493,38493,9238,,,,,,,,,,,,
United States of America,Region of the Americas of WHO,North America,2015,3,1/12/15,1/18/15,35593,35593,8645,,,,,,,,,,,,
United States of America,Region of the Americas of WHO,North America,2015,4,1/19/15,1/25/15,34191,34191,7983,,,,,,,,,,,,
United States of America,Region of the Americas of WHO,North America,2015,5,1/26/15,2/1/15,32001,32001,6880,,,,,,,,,,,,
United States of America,Region of the Americas of WHO,North America,2015,6,2/2/15,2/8/15,29578,29578,5622,,,,,,,,,,,,
United States of America,Region of the Americas of WHO,North America,2015,7,2/9/15,2/15/15,26986,26986,4195,,,,,,,,,,,,
United States of America,Region of the Americas of WHO,North America,2015,8,2/16/15,2/22/15,24292,24292,3369,,,,,,,,,,,,
United States of America,Region of the Americas of WHO,North America,2015,9,2/23/15,3/1/15,22293,22293,2839,,,,,,,,,,,,
United States of America,Region of the Americas of WHO,North America,2015,10,3/2/15,3/8/15,20419,20419,2688,,,,,,,,,,,,
United States of America,Region of the Americas of WHO,North America,2015,11,3/9/15,3/15/15,19843,19843,2524,,,,,,,,,,,,
United States of America,Region of the Americas of WHO,North America,2015,12,3/16/15,3/22/15,18418,18418,2208,,,,,,,,,,,,
United States of America,Region of the Americas of WHO,North America,2015,13,3/23/15,3/29/15,16980,16980,1910,,,,,,,,,,,,
United States of America,Region of the Americas of WHO,North America,2015,14,3/30/15,4/5/15,15123,15123,1666,,,,,,,,,,,,
United States of America,Region of the Americas of WHO,North America,2015,15,4/6/15,4/12/15,14741,14741,1472,,,,,,,,,,,,
United States of America,Region of the Americas of WHO,North America,2015,16,4/13/15,4/19/15,13389,13389,1127,,,,,,,,,,,,
United States of America,Region of the Americas of WHO,North America,2015,17,4/20/15,4/26/15,11872,11872,772,,,,,,,,,,,,
United States of America,Region of the Americas of WHO,North America,2015,18,4/27/15,5/3/15,10769,10769,610,,,,,,,,,,,,
United States of America,Region of the Americas of WHO,North America,2015,19,5/4/15,5/10/15,9784,9784,527,,,,,,,,,,,,
United States of America,Region of the Americas of WHO,North America,2015,20,5/11/15,5/17/15,9188,9188,384,,,,,,,,,,,,
United States of America,Region of the Americas of WHO,North America,2015,21,5/18/15,5/24/15,8412,8412,307,,,,,,,,,,,,
United States of America,Region of the Americas of WHO,North America,2015,22,5/25/15,5/31/15,7747,7747,226,,,,,,,,,,,,
United States of America,Region of the Americas of WHO,North America,2015,23,6/1/15,6/7/15,6991,6991,193,,,,,,,,,,,,
United States of America,Region of the Americas of WHO,North America,2015,24,6/8/15,6/14/15,6724,6724,178,,,,,,,,,,,,
United States of America,Region of the Americas of WHO,North America,2015,25,6/15/15,6/21/15,6132,6132,152,,,,,,,,,,,,
United States of America,Region of the Americas of WHO,North America,2015,26,6/22/15,6/28/15,5557,5557,121,,,,,,,,,,,,
United States of America,Region of the Americas of WHO,North America,2015,27,6/29/15,7/5/15,5230,5230,129,,,,,,,,,,,,
United States of America,Region of the Americas of WHO,North America,2015,28,7/6/15,7/12/15,5253,5253,99,,,,,,,,,,,,
United States of America,Region of the Americas of WHO,North America,2015,29,7/13/15,7/19/15,5034,5034,86,,,,,,,,,,,,
United States of America,Region of the Americas of WHO,North America,2015,30,7/20/15,7/26/15,4802,4802,80,,,,,,,,,,,,
United States of America,Region of the Americas of WHO,North America,2015,31,7/27/15,8/2/15,4785,4785,77,,,,,,,,,,,,
United States of America,Region of the Americas of WHO,North America,2015,32,8/3/15,8/9/15,4781,4781,91,,,,,,,,,,,,
United States of America,Region of the Americas of WHO,North America,2015,33,8/10/15,8/16/15,4857,4857,79,,,,,,,,,,,,
United States of America,Region of the Americas of WHO,North America,2015,34,8/17/15,8/23/15,5118,5118,96,,,,,,,,,,,,
United States of America,Region of the Americas of WHO,North America,2015,35,8/24/15,8/30/15,5322,5322,98,,,,,,,,,,,,
United States of America,Region of the Americas of WHO,North America,2015,36,8/31/15,9/6/15,5979,5979,134,,,,,,,,,,,,
United States of America,Region of the Americas of WHO,North America,2015,37,9/7/15,9/13/15,6493,6493,131,,,,,,,,,,,,
United States of America,Region of the Americas of WHO,North America,2015,38,9/14/15,9/20/15,6854,6854,167,,,,,,,,,,,,
United States of America,Region of the Americas of WHO,North America,2015,39,9/21/15,9/27/15,7253,7253,115,,,,,,,,,,,,
United States of America,Region of the Americas of WHO,North America,2015,40,9/28/15,10/4/15,6354,6354,105,,,,,,,,,,,,
United States of America,Region of the Americas of WHO,North America,2015,41,10/5/15,10/11/15,13168,13168,209,,,,,,,,,,,,
United States of America,Region of the Americas of WHO,North America,2015,42,10/12/15,10/18/15,14263,14263,228,,,,,,,,,,,,
United States of America,Region of the Americas of WHO,North America,2015,43,10/19/15,10/25/15,14639,14639,223,,,,,,,,,,,,
United States of America,Region of the Americas of WHO,North America,2015,44,10/26/15,11/1/15,14781,14781,208,,,,,,,,,,,,
United States of America,Region of the Americas of WHO,North America,2015,45,11/2/15,11/8/15,16152,16152,210,,,,,,,,,,,,
United States of America,Region of the Americas of WHO,North America,2015,46,11/9/15,11/15/15,16441,16441,270,,,,,,,,,,,,
,,,,,,,,,,,,,,,,,,,,,
,,,,,,,,,,,,,,,,,,,,,
,,,,,,,,,,,,,,,,,,,,,
,,,,,,,,,,,,,,,,,,,,,
,,,,,,,,,,,,,,,,,,,,,
,,,,,,,,,,,,,,,,,,,,,
,,,,,,,,,,,,,,,,,,,,,
,,,,,,,,,,,,,,,,,,,,,
,,,,,,,,,,,,,,,,,,,,,
,,,,,,,,,,,,,,,,,,,,,
,,,,,,,,,,,,,,,,,,,,,
,,,,,,,,,,,,,,,,,,,,,
,,,,,,,,,,,,,,,,,,,,,
,,,,,,,,,,,,,,,,,,,,,
,,,,,,,,,,,,,,,,,,,,,
,,,,,,,,,,,,,,,,,,,,,
,,,,,,,,,,,,,,,,,,,,,
,,,,,,,,,,,,,,,,,,,,,
,,,,,,,,,,,,,,,,,,,,,
,,,,,,,,,,,,,,,,,,,,,
,,,,,,,,,,,,,,,,,,,,,
,,,,,,,,,,,,,,,,,,,,,
,,,,,,,,,,,,,,,,,,,,,
,,,,,,,,,,,,,,,,,,,,,
,,,,,,,,,,,,,,,,,,,,,
,,,,,,,,,,,,,,,,,,,,,
,,,,,,,,,,,,,,,,,,,,,
,,,,,,,,,,,,,,,,,,,,,
,,,,,,,,,,,,,,,,,,,,,
,,,,,,,,,,,,,,,,,,,,,
,,,,,,,,,,,,,,,,,,,,,
,,,,,,,,,,,,,,,,,,,,,
,,,,,,,,,,,,,,,,,,,,,
,,,,,,,,,,,,,,,,,,,,,
,,,,,,,,,,,,,,,,,,,,,
,,,,,,,,,,,,,,,,,,,,,
,,,,,,,,,,,,,,,,,,,,,
,,,,,,,,,,,,,,,,,,,,,
,,,,,,,,,,,,,,,,,,,,,
,,,,,,,,,,,,,,,,,,,,,
,,,,,,,,,,,,,,,,,,,,,
,,,,,,,,,,,,,,,,,,,,,
,,,,,,,,,,,,,,,,,,,,,
,,,,,,,,,,,,,,,,,,,,,
,,,,,,,,,,,,,,,,,,,,,
,,,,,,,,,,,,,,,,,,,,,
,,,,,,,,,,,,,,,,,,,,,
,,,,,,,,,,,,,,,,,,,,,
,,,,,,,,,,,,,,,,,,,,,
,,,,,,,,,,,,,,,,,,,,,
,,,,,,,,,,,,,,,,,,,,,
,,,,,,,,,,,,,,,,,,,,,
,,,,,,,,,,,,,,,,,,,,,
,,,,,,,,,,,,,,,,,,,,,
,,,,,,,,,,,,,,,,,,,,,
,,,,,,,,,,,,,,,,,,,,,
,,,,,,,,,,,,,,,,,,,,,
,,,,,,,,,,,,,,,,,,,,,
,,,,,,,,,,,,,,,,,,,,,
,,,,,,,,,,,,,,,,,,,,,
,,,,,,,,,,,,,,,,,,,,,
,,,,,,,,,,,,,,,,,,,,,
,,,,,,,,,,,,,,,,,,,,,
,,,,,,,,,,,,,,,,,,,,,
,,,,,,,,,,,,,,,,,,,,,
,,,,,,,,,,,,,,,,,,,,,
,,,,,,,,,,,,,,,,,,,,,
,,,,,,,,,,,,,,,,,,,,,
,,,,,,,,,,,,,,,,,,,,,
,,,,,,,,,,,,,,,,,,,,,
,,,,,,,,,,,,,,,,,,,,,
,,,,,,,,,,,,,,,,,,,,,
,,,,,,,,,,,,,,,,,,,,,
,,,,,,,,,,,,,,,,,,,,,
,,,,,,,,,,,,,,,,,,,,,
,,,,,,,,,,,,,,,,,,,,,
,,,,,,,,,,,,,,,,,,,,,
,,,,,,,,,,,,,,,,,,,,,
,,,,,,,,,,,,,,,,,,,,,
,,,,,,,,,,,,,,,,,,,,,
,,,,,,,,,,,,,,,,,,,,,
,,,,,,,,,,,,,,,,,,,,,
,,,,,,,,,,,,,,,,,,,,,
,,,,,,,,,,,,,,,,,,,,,
,,,,,,,,,,,,,,,,,,,,,
,,,,,,,,,,,,,,,,,,,,,
,,,,,,,,,,,,,,,,,,,,,
,,,,,,,,,,,,,,,,,,,,,
,,,,,,,,,,,,,,,,,,,,,
,,,,,,,,,,,,,,,,,,,,,
,,,,,,,,,,,,,,,,,,,,,
,,,,,,,,,,,,,,,,,,,,,
,,,,,,,,,,,,,,,,,,,,,
,,,,,,,,,,,,,,,,,,,,,
,,,,,,,,,,,,,,,,,,,,,
,,,,,,,,,,,,,,,,,,,,,
,,,,,,,,,,,,,,,,,,,,,
,,,,,,,,,,,,,,,,,,,,,
,,,,,,,,,,,,,,,,,,,,,
,,,,,,,,,,,,,,,,,,,,,
,,,,,,,,,,,,,,,,,,,,,
,,,,,,,,,,,,,,,,,,,,,
,,,,,,,,,,,,,,,,,,,,,
,,,,,,,,,,,,,,,,,,,,,
,,,,,,,,,,,,,,,,,,,,,
,,,,,,,,,,,,,,,,,,,,,
,,,,,,,,,,,,,,,,,,,,,
,,,,,,,,,,,,,,,,,,,,,
,,,,,,,,,,,,,,,,,,,,,
,,,,,,,,,,,,,,,,,,,,,
,,,,,,,,,,,,,,,,,,,,,
,,,,,,,,,,,,,,,,,,,,,
,,,,,,,,,,,,,,,,,,,,,
,,,,,,,,,,,,,,,,,,,,,
,,,,,,,,,,,,,,,,,,,,,
,,,,,,,,,,,,,,,,,,,,,
,,,,,,,,,,,,,,,,,,,,,
,,,,,,,,,,,,,,,,,,,,,
,,,,,,,,,,,,,,,,,,,,,
,,,,,,,,,,,,,,,,,,,,,
,,,,,,,,,,,,,,,,,,,,,
,,,,,,,,,,,,,,,,,,,,,
,,,,,,,,,,,,,,,,,,,,,
,,,,,,,,,,,,,,,,,,,,,
,,,,,,,,,,,,,,,,,,,,,
,,,,,,,,,,,,,,,,,,,,,
,,,,,,,,,,,,,,,,,,,,,
,,,,,,,,,,,,,,,,,,,,,
,,,,,,,,,,,,,,,,,,,,,
,,,,,,,,,,,,,,,,,,,,,
,,,,,,,,,,,,,,,,,,,,,
,,,,,,,,,,,,,,,,,,,,,
,,,,,,,,,,,,,,,,,,,,,
,,,,,,,,,,,,,,,,,,,,,
,,,,,,,,,,,,,,,,,,,,,
,,,,,,,,,,,,,,,,,,,,,
,,,,,,,,,,,,,,,,,,,,,
,,,,,,,,,,,,,,,,,,,,,
,,,,,,,,,,,,,,,,,,,,,
,,,,,,,,,,,,,,,,,,,,,
,,,,,,,,,,,,,,,,,,,,,
,,,,,,,,,,,,,,,,,,,,,
,,,,,,,,,,,,,,,,,,,,,
,,,,,,,,,,,,,,,,,,,,,
,,,,,,,,,,,,,,,,,,,,,
,,,,,,,,,,,,,,,,,,,,,
,,,,,,,,,,,,,,,,,,,,,
,,,,,,,,,,,,,,,,,,,,,
,,,,,,,,,,,,,,,,,,,,,
,,,,,,,,,,,,,,,,,,,,,
,,,,,,,,,,,,,,,,,,,,,
,,,,,,,,,,,,,,,,,,,,,
,,,,,,,,,,,,,,,,,,,,,
,,,,,,,,,,,,,,,,,,,,,
,,,,,,,,,,,,,,,,,,,,,
,,,,,,,,,,,,,,,,,,,,,
,,,,,,,,,,,,,,,,,,,,,
,,,,,,,,,,,,,,,,,,,,,
,,,,,,,,,,,,,,,,,,,,,
,,,,,,,,,,,,,,,,,,,,,
,,,,,,,,,,,,,,,,,,,,,
,,,,,,,,,,,,,,,,,,,,,
,,,,,,,,,,,,,,,,,,,,,
,,,,,,,,,,,,,,,,,,,,,
,,,,,,,,,,,,,,,,,,,,,
,,,,,,,,,,,,,,,,,,,,,
,,,,,,,,,,,,,,,,,,,,,
,,,,,,,,,,,,,,,,,,,,,
,,,,,,,,,,,,,,,,,,,,,
,,,,,,,,,,,,,,,,,,,,,
,,,,,,,,,,,,,,,,,,,,,
,,,,,,,,,,,,,,,,,,,,,
,,,,,,,,,,,,,,,,,,,,,
,,,,,,,,,,,,,,,,,,,,,
,,,,,,,,,,,,,,,,,,,,,
,,,,,,,,,,,,,,,,,,,,,
,,,,,,,,,,,,,,,,,,,,,
,,,,,,,,,,,,,,,,,,,,,
,,,,,,,,,,,,,,,,,,,,,
,,,,,,,,,,,,,,,,,,,,,
,,,,,,,,,,,,,,,,,,,,,
,,,,,,,,,,,,,,,,,,,,,
,,,,,,,,,,,,,,,,,,,,,
,,,,,,,,,,,,,,,,,,,,,
,,,,,,,,,,,,,,,,,,,,,
,,,,,,,,,,,,,,,,,,,,,
,,,,,,,,,,,,,,,,,,,,,
,,,,,,,,,,,,,,,,,,,,,
,,,,,,,,,,,,,,,,,,,,,
,,,,,,,,,,,,,,,,,,,,,
,,,,,,,,,,,,,,,,,,,,,
,,,,,,,,,,,,,,,,,,,,,
,,,,,,,,,,,,,,,,,,,,,
,,,,,,,,,,,,,,,,,,,,,
,,,,,,,,,,,,,,,,,,,,,
,,,,,,,,,,,,,,,,,,,,,
,,,,,,,,,,,,,,,,,,,,,
,,,,,,,,,,,,,,,,,,,,,
,,,,,,,,,,,,,,,,,,,,,
,,,,,,,,,,,,,,,,,,,,,
,,,,,,,,,,,,,,,,,,,,,
,,,,,,,,,,,,,,,,,,,,,
,,,,,,,,,,,,,,,,,,,,,
,,,,,,,,,,,,,,,,,,,,,
,,,,,,,,,,,,,,,,,,,,,
,,,,,,,,,,,,,,,,,,,,,
,,,,,,,,,,,,,,,,,,,,,
,,,,,,,,,,,,,,,,,,,,,
,,,,,,,,,,,,,,,,,,,,,
,,,,,,,,,,,,,,,,,,,,,
,,,,,,,,,,,,,,,,,,,,,
,,,,,,,,,,,,,,,,,,,,,
,,,,,,,,,,,,,,,,,,,,,
,,,,,,,,,,,,,,,,,,,,,
,,,,,,,,,,,,,,,,,,,,,
,,,,,,,,,,,,,,,,,,,,,
,,,,,,,,,,,,,,,,,,,,,
,,,,,,,,,,,,,,,,,,,,,
,,,,,,,,,,,,,,,,,,,,,
,,,,,,,,,,,,,,,,,,,,,
,,,,,,,,,,,,,,,,,,,,,
,,,,,,,,,,,,,,,,,,,,,
,,,,,,,,,,,,,,,,,,,,,
,,,,,,,,,,,,,,,,,,,,,
,,,,,,,,,,,,,,,,,,,,,
,,,,,,,,,,,,,,,,,,,,,
,,,,,,,,,,,,,,,,,,,,,
,,,,,,,,,,,,,,,,,,,,,
,,,,,,,,,,,,,,,,,,,,,
,,,,,,,,,,,,,,,,,,,,,
,,,,,,,,,,,,,,,,,,,,,
,,,,,,,,,,,,,,,,,,,,,
,,,,,,,,,,,,,,,,,,,,,
,,,,,,,,,,,,,,,,,,,,,
,,,,,,,,,,,,,,,,,,,,,
,,,,,,,,,,,,,,,,,,,,,
,,,,,,,,,,,,,,,,,,,,,
,,,,,,,,,,,,,,,,,,,,,
,,,,,,,,,,,,,,,,,,,,,
,,,,,,,,,,,,,,,,,,,,,
,,,,,,,,,,,,,,,,,,,,,
,,,,,,,,,,,,,,,,,,,,,
,,,,,,,,,,,,,,,,,,,,,
,,,,,,,,,,,,,,,,,,,,,
,,,,,,,,,,,,,,,,,,,,,
,,,,,,,,,,,,,,,,,,,,,
,,,,,,,,,,,,,,,,,,,,,
,,,,,,,,,,,,,,,,,,,,,
,,,,,,,,,,,,,,,,,,,,,
,,,,,,,,,,,,,,,,,,,,,
,,,,,,,,,,,,,,,,,,,,,
,,,,,,,,,,,,,,,,,,,,,
,,,,,,,,,,,,,,,,,,,,,
,,,,,,,,,,,,,,,,,,,,,
,,,,,,,,,,,,,,,,,,,,,
,,,,,,,,,,,,,,,,,,,,,
,,,,,,,,,,,,,,,,,,,,,
,,,,,,,,,,,,,,,,,,,,,
,,,,,,,,,,,,,,,,,,,,,
,,,,,,,,,,,,,,,,,,,,,
,,,,,,,,,,,,,,,,,,,,,
,,,,,,,,,,,,,,,,,,,,,
,,,,,,,,,,,,,,,,,,,,,
,,,,,,,,,,,,,,,,,,,,,
,,,,,,,,,,,,,,,,,,,,,
,,,,,,,,,,,,,,,,,,,,,
,,,,,,,,,,,,,,,,,,,,,
,,,,,,,,,,,,,,,,,,,,,
,,,,,,,,,,,,,,,,,,,,,
,,,,,,,,,,,,,,,,,,,,,
,,,,,,,,,,,,,,,,,,,,,
,,,,,,,,,,,,,,,,,,,,,
,,,,,,,,,,,,,,,,,,,,,
,,,,,,,,,,,,,,,,,,,,,
,,,,,,,,,,,,,,,,,,,,,
,,,,,,,,,,,,,,,,,,,,,
,,,,,,,,,,,,,,,,,,,,,
,,,,,,,,,,,,,,,,,,,,,
,,,,,,,,,,,,,,,,,,,,,
,,,,,,,,,,,,,,,,,,,,,
,,,,,,,,,,,,,,,,,,,,,
,,,,,,,,,,,,,,,,,,,,,
,,,,,,,,,,,,,,,,,,,,,
,,,,,,,,,,,,,,,,,,,,,
,,,,,,,,,,,,,,,,,,,,,
,,,,,,,,,,,,,,,,,,,,,
,,,,,,,,,,,,,,,,,,,,,
,,,,,,,,,,,,,,,,,,,,,
,,,,,,,,,,,,,,,,,,,,,
,,,,,,,,,,,,,,,,,,,,,
,,,,,,,,,,,,,,,,,,,,,
,,,,,,,,,,,,,,,,,,,,,
,,,,,,,,,,,,,,,,,,,,,
,,,,,,,,,,,,,,,,,,,,,
,,,,,,,,,,,,,,,,,,,,,
,,,,,,,,,,,,,,,,,,,,,
,,,,,,,,,,,,,,,,,,,,,
,,,,,,,,,,,,,,,,,,,,,
,,,,,,,,,,,,,,,,,,,,,
,,,,,,,,,,,,,,,,,,,,,
,,,,,,,,,,,,,,,,,,,,,
,,,,,,,,,,,,,,,,,,,,,
,,,,,,,,,,,,,,,,,,,,,
,,,,,,,,,,,,,,,,,,,,,
,,,,,,,,,,,,,,,,,,,,,
,,,,,,,,,,,,,,,,,,,,,
,,,,,,,,,,,,,,,,,,,,,
,,,,,,,,,,,,,,,,,,,,,
,,,,,,,,,,,,,,,,,,,,,
,,,,,,,,,,,,,,,,,,,,,
,,,,,,,,,,,,,,,,,,,,,
,,,,,,,,,,,,,,,,,,,,,
,,,,,,,,,,,,,,,,,,,,,
,,,,,,,,,,,,,,,,,,,,,
,,,,,,,,,,,,,,,,,,,,,
,,,,,,,,,,,,,,,,,,,,,
,,,,,,,,,,,,,,,,,,,,,
,,,,,,,,,,,,,,,,,,,,,
,,,,,,,,,,,,,,,,,,,,,
,,,,,,,,,,,,,,,,,,,,,
,,,,,,,,,,,,,,,,,,,,,
,,,,,,,,,,,,,,,,,,,,,
,,,,,,,,,,,,,,,,,,,,,
,,,,,,,,,,,,,,,,,,,,,
,,,,,,,,,,,,,,,,,,,,,
,,,,,,,,,,,,,,,,,,,,,
,,,,,,,,,,,,,,,,,,,,,
,,,,,,,,,,,,,,,,,,,,,
,,,,,,,,,,,,,,,,,,,,,
,,,,,,,,,,,,,,,,,,,,,
,,,,,,,,,,,,,,,,,,,,,
,,,,,,,,,,,,,,,,,,,,,
,,,,,,,,,,,,,,,,,,,,,
,,,,,,,,,,,,,,,,,,,,,
,,,,,,,,,,,,,,,,,,,,,
,,,,,,,,,,,,,,,,,,,,,
,,,,,,,,,,,,,,,,,,,,,
,,,,,,,,,,,,,,,,,,,,,
,,,,,,,,,,,,,,,,,,,,,
,,,,,,,,,,,,,,,,,,,,,
,,,,,,,,,,,,,,,,,,,,,
,,,,,,,,,,,,,,,,,,,,,
,,,,,,,,,,,,,,,,,,,,,
,,,,,,,,,,,,,,,,,,,,,
,,,,,,,,,,,,,,,,,,,,,
,,,,,,,,,,,,,,,,,,,,,
,,,,,,,,,,,,,,,,,,,,,
,,,,,,,,,,,,,,,,,,,,,
,,,,,,,,,,,,,,,,,,,,,
,,,,,,,,,,,,,,,,,,,,,
,,,,,,,,,,,,,,,,,,,,,
,,,,,,,,,,,,,,,,,,,,,
,,,,,,,,,,,,,,,,,,,,,
,,,,,,,,,,,,,,,,,,,,,
,,,,,,,,,,,,,,,,,,,,,
,,,,,,,,,,,,,,,,,,,,,
,,,,,,,,,,,,,,,,,,,,,
,,,,,,,,,,,,,,,,,,,,,
,,,,,,,,,,,,,,,,,,,,,
,,,,,,,,,,,,,,,,,,,,,
,,,,,,,,,,,,,,,,,,,,,
,,,,,,,,,,,,,,,,,,,,,
,,,,,,,,,,,,,,,,,,,,,
,,,,,,,,,,,,,,,,,,,,,
,,,,,,,,,,,,,,,,,,,,,
,,,,,,,,,,,,,,,,,,,,,
,,,,,,,,,,,,,,,,,,,,,
,,,,,,,,,,,,,,,,,,,,,
,,,,,,,,,,,,,,,,,,,,,
,,,,,,,,,,,,,,,,,,,,,
,,,,,,,,,,,,,,,,,,,,,
,,,,,,,,,,,,,,,,,,,,,
,,,,,,,,,,,,,,,,,,,,,
,,,,,,,,,,,,,,,,,,,,,
,,,,,,,,,,,,,,,,,,,,,
,,,,,,,,,,,,,,,,,,,,,
,,,,,,,,,,,,,,,,,,,,,
,,,,,,,,,,,,,,,,,,,,,
,,,,,,,,,,,,,,,,,,,,,
,,,,,,,,,,,,,,,,,,,,,
,,,,,,,,,,,,,,,,,,,,,
,,,,,,,,,,,,,,,,,,,,,
,,,,,,,,,,,,,,,,,,,,,
,,,,,,,,,,,,,,,,,,,,,
,,,,,,,,,,,,,,,,,,,,,
,,,,,,,,,,,,,,,,,,,,,
,,,,,,,,,,,,,,,,,,,,,
,,,,,,,,,,,,,,,,,,,,,
,,,,,,,,,,,,,,,,,,,,,
,,,,,,,,,,,,,,,,,,,,,
,,,,,,,,,,,,,,,,,,,,,
,,,,,,,,,,,,,,,,,,,,,
,,,,,,,,,,,,,,,,,,,,,
,,,,,,,,,,,,,,,,,,,,,
,,,,,,,,,,,,,,,,,,,,,
,,,,,,,,,,,,,,,,,,,,,
,,,,,,,,,,,,,,,,,,,,,
,,,,,,,,,,,,,,,,,,,,,
,,,,,,,,,,,,,,,,,,,,,
,,,,,,,,,,,,,,,,,,,,,
,,,,,,,,,,,,,,,,,,,,,
,,,,,,,,,,,,,,,,,,,,,
,,,,,,,,,,,,,,,,,,,,,
,,,,,,,,,,,,,,,,,,,,,
,,,,,,,,,,,,,,,,,,,,,
,,,,,,,,,,,,,,,,,,,,,
,,,,,,,,,,,,,,,,,,,,,
,,,,,,,,,,,,,,,,,,,,,
,,,,,,,,,,,,,,,,,,,,,
,,,,,,,,,,,,,,,,,,,,,
,,,,,,,,,,,,,,,,,,,,,
,,,,,,,,,,,,,,,,,,,,,
,,,,,,,,,,,,,,,,,,,,,
,,,,,,,,,,,,,,,,,,,,,
,,,,,,,,,,,,,,,,,,,,,
,,,,,,,,,,,,,,,,,,,,,
,,,,,,,,,,,,,,,,,,,,,
,,,,,,,,,,,,,,,,,,,,,
,,,,,,,,,,,,,,,,,,,,,
,,,,,,,,,,,,,,,,,,,,,
,,,,,,,,,,,,,,,,,,,,,
,,,,,,,,,,,,,,,,,,,,,
,,,,,,,,,,,,,,,,,,,,,
,,,,,,,,,,,,,,,,,,,,,
,,,,,,,,,,,,,,,,,,,,,
,,,,,,,,,,,,,,,,,,,,,
,,,,,,,,,,,,,,,,,,,,,
,,,,,,,,,,,,,,,,,,,,,
,,,,,,,,,,,,,,,,,,,,,
,,,,,,,,,,,,,,,,,,,,,
,,,,,,,,,,,,,,,,,,,,,
,,,,,,,,,,,,,,,,,,,,,
,,,,,,,,,,,,,,,,,,,,,
,,,,,,,,,,,,,,,,,,,,,
,,,,,,,,,,,,,,,,,,,,,
,,,,,,,,,,,,,,,,,,,,,
,,,,,,,,,,,,,,,,,,,,,
,,,,,,,,,,,,,,,,,,,,,
,,,,,,,,,,,,,,,,,,,,,
,,,,,,,,,,,,,,,,,,,,,
,,,,,,,,,,,,,,,,,,,,,
,,,,,,,,,,,,,,,,,,,,,
,,,,,,,,,,,,,,,,,,,,,
,,,,,,,,,,,,,,,,,,,,,
,,,,,,,,,,,,,,,,,,,,,
,,,,,,,,,,,,,,,,,,,,,
,,,,,,,,,,,,,,,,,,,,,
,,,,,,,,,,,,,,,,,,,,,
,,,,,,,,,,,,,,,,,,,,,
,,,,,,,,,,,,,,,,,,,,,
,,,,,,,,,,,,,,,,,,,,,
,,,,,,,,,,,,,,,,,,,,,