title,date,review_page,date_scraped
Great Product,"January 29, 2019",http://www.amazon.com/WOOLOVE-Extra-Thick-Blocking-mats/dp/B07KCL9KPJ/?th=1#customerReviews,2020-02-06
Great investment in a quality product,"February 26, 2019",http://www.amazon.com/WOOLOVE-Extra-Thick-Blocking-mats/dp/B07KCL9KPJ/?th=1#customerReviews,2020-02-06
Case is missing handleâupdated,"February 4, 2019",http://www.amazon.com/WOOLOVE-Extra-Thick-Blocking-mats/dp/B07KCL9KPJ/?th=1#customerReviews,2020-02-06
These mats are fantastic! They arrived much quicker than I expected,"November 19, 2017",http://www.amazon.com/WOOLOVE-Extra-Thick-Blocking-mats/dp/B07KCL9KPJ/?th=1#customerReviews,2020-02-06
I LOVE these mats,"March 21, 2018",http://www.amazon.com/WOOLOVE-Extra-Thick-Blocking-mats/dp/B07KCL9KPJ/?th=1#customerReviews,2020-02-06
BLOCKING! BLOCKING! BLOCKING!,"June 25, 2019",http://www.amazon.com/WOOLOVE-Extra-Thick-Blocking-mats/dp/B07KCL9KPJ/?th=1#customerReviews,2020-02-06
Woul buy again!,"March 30, 2019",http://www.amazon.com/WOOLOVE-Extra-Thick-Blocking-mats/dp/B07KCL9KPJ/?th=1#customerReviews,2020-02-06
Just what was needed,"March 28, 2019",http://www.amazon.com/WOOLOVE-Extra-Thick-Blocking-mats/dp/B07KCL9KPJ/?th=1#customerReviews,2020-02-06
